test_run_dir/Tester4_should_test_SpectrogramGenWithFIFO/SpectrogramGenWithFIFO.vcd
$date
2020-10-13T03:29+0000
$end
$version
0.2
$end
$comment

$end
$timescale 1ns  $end
$scope module SpectrogramGenWithFIFO $end
 $var wire 1 " SpectrogramGenblock $end
 $var wire 33 + _T $end
 $var wire 1 . io_FFTsignal_valid $end
 $var wire 32 6 io_Spectrogram_bits_value $end
 $var wire 1 8 SpectrogramFIFO $end
 $var wire 1 ? io_Spectrogram_ready $end
 $var wire 32 F io_FFTsignal_bits_im $end
 $var wire 1 \ clock $end
 $var wire 32 ] io_FFTsignal_bits_re $end
 $var wire 1 _ io_FFTsignal_ready $end
 $var wire 1 p io_Spectrogram_valid $end
 $var wire 1 ~ reset $end
  $scope module SpectrogramGenblock.ComplexEnergy_1 $end
  $upscope $end
  $scope module SpectrogramGenblock.ComplexEnergy $end
  $upscope $end
  $scope module SpectrogramFIFO $end
   $var wire 32 & _GEN_39 $end
   $var wire 32 ' _GEN_30 $end
   $var wire 1 0 io_empty $end
   $var wire 32 3 _GEN_48 $end
   $var wire 32 5 _GEN_1 $end
   $var wire 1 < _GEN_42 $end
   $var wire 32 B _GEN_24 $end
   $var wire 32 C _GEN_18 $end
   $var wire 32 D rp $end
   $var wire 1 K _GEN_35 $end
   $var wire 32 L wp $end
   $var wire 32 M _GEN_23 $end
   $var wire 32 N _GEN_17 $end
   $var wire 32 P mem_value $end
   $var wire 32 Q _GEN_6 $end
   $var wire 1 S io_wr $end
   $var wire 32 T _GEN_38 $end
   $var wire 32 W _GEN_0 $end
   $var wire 32 Y _GEN_32 $end
   $var wire 32 [ io_dataout_value $end
   $var wire 32 ` _GEN_29 $end
   $var wire 1 j clock $end
   $var wire 32 k io_datain_value $end
   $var wire 32 m _GEN_52 $end
   $var wire 32 s _GEN_2 $end
   $var wire 1 t _GEN_28 $end
   $var wire 32 w _GEN_43 $end
   $var wire 32 { _GEN_58 $end
   $var wire 1 | _GEN_5 $end
   $var wire 32 } _GEN_31 $end
   $var wire 32 "! _GEN_10 $end
   $var wire 32 "$ _GEN_25 $end
   $var wire 32 "% count $end
   $var wire 1 "' io_rd $end
   $var wire 32 ") io_count $end
   $var wire 1 ". reset $end
    $scope module mem_value $end
      $scope module _T_11 $end
       $var wire 10 % addr $end
       $var wire 32 - pipeline_data_0 $end
       $var wire 1 / valid $end
       $var wire 32 G data $end
       $var wire 1 H clk $end
       $var wire 1 e pipeline_valid_0 $end
       $var wire 10 i pipeline_addr_0 $end
       $var wire 1 v en $end
       $var wire 1 "0 mask $end
      $upscope $end
      $scope module _T_21 $end
       $var wire 1 1 en $end
       $var wire 32 7 data $end
       $var wire 32 E pipeline_data_0 $end
       $var wire 1 J pipeline_valid_0 $end
       $var wire 1 c mask $end
       $var wire 1 f clk $end
       $var wire 1 n valid $end
       $var wire 10 y addr $end
       $var wire 10 "* pipeline_addr_0 $end
      $upscope $end
      $scope module _T_33 $end
       $var wire 32 2 data $end
       $var wire 1 > clk $end
       $var wire 1 @ en $end
       $var wire 10 z addr $end
      $upscope $end
      $scope module _T_5 $end
       $var wire 1 b en $end
       $var wire 10 d addr $end
       $var wire 1 o clk $end
       $var wire 32 "# data $end
      $upscope $end
    $upscope $end
  $upscope $end
  $scope module SpectrogramGenblock $end
   $var wire 1 # _GEN_3 $end
   $var wire 1 , io_FFTsignal_ready $end
   $var wire 32 4 io_FFTsignal_bits_im $end
   $var wire 1 : io_Spectrogram_ready $end
   $var wire 1 ; ComplexEnergy_1 $end
   $var wire 1 A _GEN_5 $end
   $var wire 10 I _GEN_2 $end
   $var wire 32 O SpectrogramReg_value $end
   $var wire 1 R reset $end
   $var wire 32 Z io_FFTsignal_bits_re $end
   $var wire 32 h _GEN_4 $end
   $var wire 1 q io_Spectrogram_valid $end
   $var wire 1 u io_FFTsignal_valid $end
   $var wire 1 x _T $end
   $var wire 10 "& SpectrogramCnt $end
   $var wire 32 "( io_Spectrogram_bits_value $end
   $var wire 1 "+ clock $end
   $var wire 10 ", _GEN_9 $end
   $var wire 32 "- _GEN_0 $end
   $var wire 1 "/ ComplexEnergy $end
    $scope module ComplexEnergy_1 $end
     $var wire 32 ! io_op2_re $end
     $var wire 32 ( _GEN_1 $end
     $var wire 32 * io_op1_im $end
     $var wire 48 U _GEN_0 $end
     $var wire 32 V io_op1_re $end
     $var wire 32 ^ io_res_value $end
     $var wire 32 a io_op2_im $end
     $var wire 64 l _T $end
    $upscope $end
    $scope module ComplexEnergy $end
     $var wire 64 $ _T $end
     $var wire 32 ) io_res_value $end
     $var wire 32 9 io_op1_re $end
     $var wire 32 = io_op2_im $end
     $var wire 32 X _GEN_1 $end
     $var wire 32 g io_op2_re $end
     $var wire 32 r io_op1_im $end
     $var wire 48 "" _GEN_0 $end
    $upscope $end
  $upscope $end
$upscope $end
$enddefinitions $end
$dumpvars
b00000000000000000000000000000000 Y
b00000000000000000000000000000000 D
b0000000000 I
0;
b00000000000000000000000000000000 '
0o
b00000000000000000000000000000000 [
b00000000000000000000000000000000 "!
0R
b00000000000000000000000000000000 !
0q
b00000000000000000000000000000000 r
b00000000000000000000000000000000 "#
0"
1"0
b0000000000 y
b00000000000000000000000000000000 O
b00000000000000000000000000000000 2
1c
0e
b00000000000000000000000000000000 Q
0"/
b00000000000000000000000000000000 4
0"'
b00000000000000000000000000000000 }
b00000000000000000000000000000000 h
0|
b00000000000000000000000000000000 `
0J
b00000000000000000000000000000000 6
0~
b00000000000000000000000000000000 w
b00000000000000000000000000000000 M
0"+
b00000000000000000000000000000000 E
b00000000000000000000000000000000 "(
0/
0x
b0000000000 i
b0000000000 ",
b00000000000000000000000000000000 G
01
b00000000000000000000000000000000 *
b00000000000000000000000000000000 {
b00000000000000000000000000000000 s
b00000000000000000000000000000000 ^
0H
b00000000000000000000000000000000 "$
b0000000000 "&
0@
b0000000000000000000000000000000000000000000000000000000000000000 l
0t
b0000000000 z
0_
b00000000000000000000000000000000 X
b00000000000000000000000000000000 C
b00000000000000000000000000000000 &
0v
0n
b00000000000000000000000000000000 Z
b0000000000 "*
0<
b00000000000000000000000000000000 =
b00000000000000000000000000000000 (
b000000000000000000000000000000000000000000000000 ""
0p
0S
b00000000000000000000000000000000 T
0>
b00000000000000000000000000000000 7
0j
b00000000000000000000000000000000 k
b00000000000000000000000000000000 V
b00000000000000000000000000000000 N
b00000000000000000000000000000000 9
08
0#
b00000000000000000000000000000000 m
b00000000000000000000000000000000 P
0:
0".
b00000000000000000000000000000000 3
0f
b00000000000000000000000000000000 g
b00000000000000000000000000000000 "-
b00000000000000000000000000000000 5
b0000000000 %
b00000000000000000000000000000000 a
0K
b00000000000000000000000000000000 L
0.
b000000000000000000000000000000000 +
0b
b000000000000000000000000000000000000000000000000 U
b00000000000000000000000000000000 ")
b00000000000000000000000000000000 F
00
b00000000000000000000000000000000 )
0\
b00000000000000000000000000000000 ]
0?
b0000000000000000000000000000000000000000000000000000000000000000 $
b0000000000 d
b00000000000000000000000000000000 "%
0A
0,
b00000000000000000000000000000000 B
b00000000000000000000000000000000 -
b00000000000000000000000000000000 W
0u
$end
#0
b0000000001 ",
b00000000000000000000000000000001 C
1R
b00000000000000000000000000000001 &
b00000000000000000000000000000001 5
1S
1K
1~
1".
1q
10
b00000000000000000000000000000001 T
b00000000000000000000000000000001 N
11
b00000000000000000000000000000001 W
b00000000000000000000000000000001 {
b000000000000000000000001110000100 +
1:
b00000000000000000000000000000001 m
b0000000001 I
1A
1n
#1
1"+
1f
1J
1o
1H
1j
1>
1\
#6
0"+
0f
b00000000000000000001010010100010 4
b00000000000000000010100001110110 g
0R
b00000000000000000000100000001110 h
0K
0~
b00000000000000000001010010100010 a
0j
1"'
b00000000000000000001010010100010 F
01
b000000000000000000000000000000000000100000001110 ""
b00000000000000000001010010100010 *
b00000000000000000010100001110110 ]
0H
b00000000000000000000000000000000 {
b00000000000000000000100000001110 ^
1u
b00000000000000000000100000001110 X
1.
b00000000000000000000000000000000 &
0o
b00000000000000000010100001110110 Z
1x
b00000000000000000001010010100010 =
b00000000000000000000100000001110 (
b00000000000000000000100000001110 "-
0>
0".
0\
b00000000000000000000100000001110 )
b00000000000000000010100001110110 !
b00000000000000000000000000000000 T
1?
b00000000000000000001010010100010 r
b000000000000000000000000000000000000100000001110 U
b00000000000000000010100001110110 V
b00000000000000000010100001110110 9
b0000000000000000000000000000000000000110011001010001011001100100 l
b0000000000000000000000000000000000000110011001010001011001100100 $
b00000000000000000000000000000000 m
0n
#11
1f
b0000000010 ",
0J
1o
b00000000000000000000100000001110 6
b0000000001 "&
b00000000000000000000100000001110 7
1j
b00000000000000000000100000001110 [
1>
1\
b00000000000000000000100000001110 s
b00000000000000000000100000001110 "(
b00000000000000000000100000001110 k
b00000000000000000000100000001110 G
1H
b00000000000000000000100000001110 O
b0000000010 I
1"+
#16
0f
b00000000000000001100000011100110 4
b00000000000000001000011000111110 g
b00000000000000001101011110111110 h
b00000000000000001100000011100110 a
0j
b00000000000000001100000011100110 F
b000000000000000000000000000000001101011110111110 ""
b00000000000000001100000011100110 *
b00000000000000001000011000111110 ]
0H
b00000000000000001101011110111110 ^
0u
b00000000000000001101011110111110 X
0.
0o
b00000000000000001000011000111110 Z
0x
b00000000000000001100000011100110 =
b00000000000000001101011110111110 (
b00000000000000001101011110111110 "-
0>
b00000000000000001101011110111110 )
0\
b00000000000000001000011000111110 !
b00000000000000001100000011100110 r
b000000000000000000000000000000001101011110111110 U
b00000000000000001000011000111110 V
b00000000000000001000011000111110 9
b0000000000000000000000000000000001000110011001001111011100000100 l
b0000000000000000000000000000000001000110011001001111011100000100 $
0"+
#21
1f
b00000000000000000000100000001110 -
b0000000011 ",
1o
b00000000000000001101011110111110 6
b00000000000000000000100000001110 E
b0000000010 "&
b00000000000000001101011110111110 7
1j
b00000000000000001101011110111110 [
1>
1\
b00000000000000001101011110111110 s
b00000000000000001101011110111110 "(
b00000000000000001101011110111110 k
b00000000000000001101011110111110 G
1H
b00000000000000001101011110111110 O
b0000000011 I
1"+
#26
0f
b00000000000000000110100011011110 4
b11111111111111110001011000000100 g
b00000000000000010000000011010001 h
b00000000000000000110100011011110 a
0j
b00000000000000000110100011011110 F
b000000000000000000000000000000010000000011010001 ""
b00000000000000000110100011011110 *
b11111111111111110001011000000100 ]
0H
b00000000000000010000000011010001 ^
b00000000000000010000000011010001 X
0o
b11111111111111110001011000000100 Z
b00000000000000000110100011011110 =
b00000000000000010000000011010001 (
b00000000000000010000000011010001 "-
0>
b00000000000000010000000011010001 )
0\
b11111111111111110001011000000100 !
b00000000000000000110100011011110 r
b000000000000000000000000000000010000000011010001 U
b11111111111111110001011000000100 V
b11111111111111110001011000000100 9
b0000000000000000000000000000000011010101110111001011000000010000 l
b0000000000000000000000000000000011010101110111001011000000010000 $
0"+
#31
1f
b00000000000000001101011110111110 -
b0000000100 ",
1o
b00000000000000010000000011010001 6
b00000000000000001101011110111110 E
b0000000011 "&
b00000000000000010000000011010001 7
1j
b00000000000000010000000011010001 [
1>
1\
b00000000000000010000000011010001 s
b00000000000000010000000011010001 "(
b00000000000000010000000011010001 k
b00000000000000010000000011010001 G
1H
b00000000000000010000000011010001 O
b0000000100 I
1"+
#36
0f
b11111111111111111110011001101000 4
b11111111111111110000110110111100 g
b00000000000000001110011111010011 h
b11111111111111111110011001101000 a
0j
b11111111111111111110011001101000 F
b000000000000000000000000000000001110011111010011 ""
b11111111111111111110011001101000 *
b11111111111111110000110110111100 ]
0H
b00000000000000001110011111010011 ^
b00000000000000001110011111010011 X
0o
b11111111111111110000110110111100 Z
b11111111111111111110011001101000 =
b00000000000000001110011111010011 (
b00000000000000001110011111010011 "-
0>
b00000000000000001110011111010011 )
0\
b11111111111111110000110110111100 !
b11111111111111111110011001101000 r
b000000000000000000000000000000001110011111010011 U
b11111111111111110000110110111100 V
b11111111111111110000110110111100 9
b0000000000000000000000000000000011100101010001001010001000010000 l
b0000000000000000000000000000000011100101010001001010001000010000 $
0"+
#41
1f
b00000000000000010000000011010001 -
b0000000101 ",
1o
b00000000000000001110011111010011 6
b00000000000000010000000011010001 E
b0000000100 "&
b00000000000000001110011111010011 7
1j
b00000000000000001110011111010011 [
1>
1\
b00000000000000001110011111010011 s
b00000000000000001110011111010011 "(
b00000000000000001110011111010011 k
b00000000000000001110011111010011 G
1H
b00000000000000001110011111010011 O
b0000000101 I
1"+
#46
0f
b00000000000000001010010101101010 4
b00000000000000001110010111110010 g
b00000000000000010011100101101100 h
b00000000000000001010010101101010 a
0j
b00000000000000001010010101101010 F
b000000000000000000000000000000010011100101101100 ""
b00000000000000001010010101101010 *
b00000000000000001110010111110010 ]
0H
b00000000000000010011100101101100 ^
b00000000000000010011100101101100 X
0o
b00000000000000001110010111110010 Z
b00000000000000001010010101101010 =
b00000000000000010011100101101100 (
b00000000000000010011100101101100 "-
0>
b00000000000000010011100101101100 )
0\
b00000000000000001110010111110010 !
b00000000000000001010010101101010 r
b000000000000000000000000000000010011100101101100 U
b00000000000000001110010111110010 V
b00000000000000001110010111110010 9
b0000000000000000000000000000000011001110100010101101100011000100 l
b0000000000000000000000000000000011001110100010101101100011000100 $
0"+
#51
1f
b00000000000000001110011111010011 -
b0000000110 ",
1o
b00000000000000010011100101101100 6
b00000000000000001110011111010011 E
b0000000101 "&
b00000000000000010011100101101100 7
1j
b00000000000000010011100101101100 [
1>
1\
b00000000000000010011100101101100 s
b00000000000000010011100101101100 "(
b00000000000000010011100101101100 k
b00000000000000010011100101101100 G
1H
b00000000000000010011100101101100 O
b0000000110 I
1"+
#56
0f
b00000000000000000111101111011100 4
b00000000000000000010100011100110 g
b00000000000000000100001001110101 h
b00000000000000000111101111011100 a
0j
b00000000000000000111101111011100 F
b000000000000000000000000000000000100001001110101 ""
b00000000000000000111101111011100 *
b00000000000000000010100011100110 ]
0H
b00000000000000000100001001110101 ^
b00000000000000000100001001110101 X
0o
b00000000000000000010100011100110 Z
b00000000000000000111101111011100 =
b00000000000000000100001001110101 (
b00000000000000000100001001110101 "-
0>
b00000000000000000100001001110101 )
0\
b00000000000000000010100011100110 !
b00000000000000000111101111011100 r
b000000000000000000000000000000000100001001110101 U
b00000000000000000010100011100110 V
b00000000000000000010100011100110 9
b0000000000000000000000000000000000000110100010001010111010100100 l
b0000000000000000000000000000000000000110100010001010111010100100 $
0"+
#61
1f
b00000000000000010011100101101100 -
b0000000111 ",
1o
b00000000000000000100001001110101 6
b00000000000000010011100101101100 E
b0000000110 "&
b00000000000000000100001001110101 7
1j
b00000000000000000100001001110101 [
1>
1\
b00000000000000000100001001110101 s
b00000000000000000100001001110101 "(
b00000000000000000100001001110101 k
b00000000000000000100001001110101 G
1H
b00000000000000000100001001110101 O
b0000000111 I
1"+
#66
0f
b00000000000000000001110101110010 4
b00000000000000001011001000001110 g
b00000000000000000111111100111010 h
b00000000000000000001110101110010 a
0j
b00000000000000000001110101110010 F
b000000000000000000000000000000000111111100111010 ""
b00000000000000000001110101110010 *
b00000000000000001011001000001110 ]
0H
b00000000000000000111111100111010 ^
b00000000000000000111111100111010 X
0o
b00000000000000001011001000001110 Z
b00000000000000000001110101110010 =
b00000000000000000111111100111010 (
b00000000000000000111111100111010 "-
0>
b00000000000000000111111100111010 )
0\
b00000000000000001011001000001110 !
b00000000000000000001110101110010 r
b000000000000000000000000000000000111111100111010 U
b00000000000000001011001000001110 V
b00000000000000001011001000001110 9
b0000000000000000000000000000000001111011110101110111100011000100 l
b0000000000000000000000000000000001111011110101110111100011000100 $
0"+
#71
1f
b00000000000000000100001001110101 -
b0000001000 ",
1o
b00000000000000000111111100111010 6
b00000000000000000100001001110101 E
b0000000111 "&
b00000000000000000111111100111010 7
1j
b00000000000000000111111100111010 [
1>
1\
b00000000000000000111111100111010 s
b00000000000000000111111100111010 "(
b00000000000000000111111100111010 k
b00000000000000000111111100111010 G
1H
b00000000000000000111111100111010 O
b0000001000 I
1"+
#76
0f
b11111111111111111101100100100110 4
b11111111111111110110111100011010 g
b00000000000000000101011111101001 h
b11111111111111111101100100100110 a
0j
b11111111111111111101100100100110 F
b000000000000000000000000000000000101011111101001 ""
b11111111111111111101100100100110 *
b11111111111111110110111100011010 ]
0H
b00000000000000000101011111101001 ^
b00000000000000000101011111101001 X
0o
b11111111111111110110111100011010 Z
b11111111111111111101100100100110 =
b00000000000000000101011111101001 (
b00000000000000000101011111101001 "-
0>
b00000000000000000101011111101001 )
0\
b11111111111111110110111100011010 !
b11111111111111111101100100100110 r
b000000000000000000000000000000000101011111101001 U
b11111111111111110110111100011010 V
b11111111111111110110111100011010 9
b0000000000000000000000000000000001010010000000111000111010100100 l
b0000000000000000000000000000000001010010000000111000111010100100 $
0"+
#81
1f
b00000000000000000111111100111010 -
b0000001001 ",
1o
b00000000000000000101011111101001 6
b00000000000000000111111100111010 E
b0000001000 "&
b00000000000000000101011111101001 7
1j
b00000000000000000101011111101001 [
1>
1\
b00000000000000000101011111101001 s
b00000000000000000101011111101001 "(
b00000000000000000101011111101001 k
b00000000000000000101011111101001 G
1H
b00000000000000000101011111101001 O
b0000001001 I
1"+
#86
0f
b11111111111111110100110011101010 4
b00000000000000000111110110111010 g
b00000000000000001011101100000110 h
b11111111111111110100110011101010 a
0j
b11111111111111110100110011101010 F
b000000000000000000000000000000001011101100000110 ""
b11111111111111110100110011101010 *
b00000000000000000111110110111010 ]
0H
b00000000000000001011101100000110 ^
b00000000000000001011101100000110 X
0o
b00000000000000000111110110111010 Z
b11111111111111110100110011101010 =
b00000000000000001011101100000110 (
b00000000000000001011101100000110 "-
0>
b00000000000000001011101100000110 )
0\
b00000000000000000111110110111010 !
b11111111111111110100110011101010 r
b000000000000000000000000000000001011101100000110 U
b00000000000000000111110110111010 V
b00000000000000000111110110111010 9
b0000000000000000000000000000000000111101101111110010101100100100 l
b0000000000000000000000000000000000111101101111110010101100100100 $
0"+
#91
1f
b00000000000000000101011111101001 -
b0000001010 ",
1o
b00000000000000001011101100000110 6
b00000000000000000101011111101001 E
b0000001001 "&
b00000000000000001011101100000110 7
1j
b00000000000000001011101100000110 [
1>
1\
b00000000000000001011101100000110 s
b00000000000000001011101100000110 "(
b00000000000000001011101100000110 k
b00000000000000001011101100000110 G
1H
b00000000000000001011101100000110 O
b0000001010 I
1"+
#96
0f
b11111111111111111111000010001110 4
b00000000000000000010101111110000 g
b00000000000000000000100001111001 h
b11111111111111111111000010001110 a
0j
b11111111111111111111000010001110 F
b000000000000000000000000000000000000100001111001 ""
b11111111111111111111000010001110 *
b00000000000000000010101111110000 ]
0H
b00000000000000000000100001111001 ^
b00000000000000000000100001111001 X
0o
b00000000000000000010101111110000 Z
b11111111111111111111000010001110 =
b00000000000000000000100001111001 (
b00000000000000000000100001111001 "-
0>
b00000000000000000000100001111001 )
0\
b00000000000000000010101111110000 !
b11111111111111111111000010001110 r
b000000000000000000000000000000000000100001111001 U
b00000000000000000010101111110000 V
b00000000000000000010101111110000 9
b0000000000000000000000000000000000000111100010101000000100000000 l
b0000000000000000000000000000000000000111100010101000000100000000 $
0"+
#101
1f
b00000000000000001011101100000110 -
b0000001011 ",
1o
b00000000000000000000100001111001 6
b00000000000000001011101100000110 E
b0000001010 "&
b00000000000000000000100001111001 7
1j
b00000000000000000000100001111001 [
1>
1\
b00000000000000000000100001111001 s
b00000000000000000000100001111001 "(
b00000000000000000000100001111001 k
b00000000000000000000100001111001 G
1H
b00000000000000000000100001111001 O
b0000001011 I
1"+
#106
0f
b11111111111111110111010110000110 4
b11111111111111110111111110001010 g
b00000000000000001000101101011101 h
b11111111111111110111010110000110 a
0j
b11111111111111110111010110000110 F
b000000000000000000000000000000001000101101011101 ""
b11111111111111110111010110000110 *
b11111111111111110111111110001010 ]
0H
b00000000000000001000101101011101 ^
b00000000000000001000101101011101 X
0o
b11111111111111110111111110001010 Z
b11111111111111110111010110000110 =
b00000000000000001000101101011101 (
b00000000000000001000101101011101 "-
0>
b00000000000000001000101101011101 )
0\
b11111111111111110111111110001010 !
b11111111111111110111010110000110 r
b000000000000000000000000000000001000101101011101 U
b11111111111111110111111110001010 V
b11111111111111110111111110001010 9
b0000000000000000000000000000000001000000011101100011011001100100 l
b0000000000000000000000000000000001000000011101100011011001100100 $
0"+
#111
1f
b00000000000000000000100001111001 -
b0000001100 ",
1o
b00000000000000001000101101011101 6
b00000000000000000000100001111001 E
b0000001011 "&
b00000000000000001000101101011101 7
1j
b00000000000000001000101101011101 [
1>
1\
b00000000000000001000101101011101 s
b00000000000000001000101101011101 "(
b00000000000000001000101101011101 k
b00000000000000001000101101011101 G
1H
b00000000000000001000101101011101 O
b0000001100 I
1"+
#116
0f
b11111111111111111100000000100010 4
b00000000000000001011001100001010 g
b00000000000000001000110100100110 h
b11111111111111111100000000100010 a
0j
b11111111111111111100000000100010 F
b000000000000000000000000000000001000110100100110 ""
b11111111111111111100000000100010 *
b00000000000000001011001100001010 ]
0H
b00000000000000001000110100100110 ^
b00000000000000001000110100100110 X
0o
b00000000000000001011001100001010 Z
b11111111111111111100000000100010 =
b00000000000000001000110100100110 (
b00000000000000001000110100100110 "-
0>
b00000000000000001000110100100110 )
0\
b00000000000000001011001100001010 !
b11111111111111111100000000100010 r
b000000000000000000000000000000001000110100100110 U
b00000000000000001011001100001010 V
b00000000000000001011001100001010 9
b0000000000000000000000000000000001111101001101101111110001100100 l
b0000000000000000000000000000000001111101001101101111110001100100 $
0"+
#121
1f
b00000000000000001000101101011101 -
b0000001101 ",
1o
b00000000000000001000110100100110 6
b00000000000000001000101101011101 E
b0000001100 "&
b00000000000000001000110100100110 7
1j
b00000000000000001000110100100110 [
1>
1\
b00000000000000001000110100100110 s
b00000000000000001000110100100110 "(
b00000000000000001000110100100110 k
b00000000000000001000110100100110 G
1H
b00000000000000001000110100100110 O
b0000001101 I
1"+
#126
0f
b11111111111111110011011011111100 4
b11111111111111110110111000001110 g
b00000000000000001111000100001011 h
b11111111111111110011011011111100 a
0j
b11111111111111110011011011111100 F
b000000000000000000000000000000001111000100001011 ""
b11111111111111110011011011111100 *
b11111111111111110110111000001110 ]
0H
b00000000000000001111000100001011 ^
b00000000000000001111000100001011 X
0o
b11111111111111110110111000001110 Z
b11111111111111110011011011111100 =
b00000000000000001111000100001011 (
b00000000000000001111000100001011 "-
0>
b00000000000000001111000100001011 )
0\
b11111111111111110110111000001110 !
b11111111111111110011011011111100 r
b000000000000000000000000000000001111000100001011 U
b11111111111111110110111000001110 V
b11111111111111110110111000001110 9
b0000000000000000000000000000000001010011001101000000100011000100 l
b0000000000000000000000000000000001010011001101000000100011000100 $
0"+
#131
1f
b00000000000000001000110100100110 -
b0000001110 ",
1o
b00000000000000001111000100001011 6
b00000000000000001000110100100110 E
b0000001101 "&
b00000000000000001111000100001011 7
1j
b00000000000000001111000100001011 [
1>
1\
b00000000000000001111000100001011 s
b00000000000000001111000100001011 "(
b00000000000000001111000100001011 k
b00000000000000001111000100001011 G
1H
b00000000000000001111000100001011 O
b0000001110 I
1"+
#136
0f
b11111111111111110000001110100110 4
b11111111111111110001110100110110 g
b00000000000000011100000110101010 h
b11111111111111110000001110100110 a
0j
b11111111111111110000001110100110 F
b000000000000000000000000000000011100000110101010 ""
b11111111111111110000001110100110 *
b11111111111111110001110100110110 ]
0H
b00000000000000011100000110101010 ^
b00000000000000011100000110101010 X
0o
b11111111111111110001110100110110 Z
b11111111111111110000001110100110 =
b00000000000000011100000110101010 (
b00000000000000011100000110101010 "-
0>
b00000000000000011100000110101010 )
0\
b11111111111111110001110100110110 !
b11111111111111110000001110100110 r
b000000000000000000000000000000011100000110101010 U
b11111111111111110001110100110110 V
b11111111111111110001110100110110 9
b0000000000000000000000000000000011001000111010010100011101100100 l
b0000000000000000000000000000000011001000111010010100011101100100 $
0"+
#141
1f
b00000000000000001111000100001011 -
b0000001111 ",
1o
b00000000000000011100000110101010 6
b00000000000000001111000100001011 E
b0000001110 "&
b00000000000000011100000110101010 7
1j
b00000000000000011100000110101010 [
1>
1\
b00000000000000011100000110101010 s
b00000000000000011100000110101010 "(
b00000000000000011100000110101010 k
b00000000000000011100000110101010 G
1H
b00000000000000011100000110101010 O
b0000001111 I
1"+
#146
0f
b11111111111111110111100110111100 4
b11111111111111111010100100010100 g
b00000000000000000110001111101110 h
b11111111111111110111100110111100 a
0j
b11111111111111110111100110111100 F
b000000000000000000000000000000000110001111101110 ""
b11111111111111110111100110111100 *
b11111111111111111010100100010100 ]
0H
b00000000000000000110001111101110 ^
b00000000000000000110001111101110 X
0o
b11111111111111111010100100010100 Z
b11111111111111110111100110111100 =
b00000000000000000110001111101110 (
b00000000000000000110001111101110 "-
0>
b00000000000000000110001111101110 )
0\
b11111111111111111010100100010100 !
b11111111111111110111100110111100 r
b000000000000000000000000000000000110001111101110 U
b11111111111111111010100100010100 V
b11111111111111111010100100010100 9
b0000000000000000000000000000000000011101100000110110100110010000 l
b0000000000000000000000000000000000011101100000110110100110010000 $
0"+
#151
1f
b00000000000000011100000110101010 -
b0000010000 ",
1o
b00000000000000000110001111101110 6
b00000000000000011100000110101010 E
b0000001111 "&
b00000000000000000110001111101110 7
1j
b00000000000000000110001111101110 [
1>
1\
b00000000000000000110001111101110 s
b00000000000000000110001111101110 "(
b00000000000000000110001111101110 k
b00000000000000000110001111101110 G
1H
b00000000000000000110001111101110 O
b0000010000 I
1"+
#156
0f
b11111111111111110101110010111110 4
b00000000000000000000001111011010 g
b00000000000000000110100000101011 h
b11111111111111110101110010111110 a
0j
b11111111111111110101110010111110 F
b000000000000000000000000000000000110100000101011 ""
b11111111111111110101110010111110 *
b00000000000000000000001111011010 ]
0H
b00000000000000000110100000101011 ^
b00000000000000000110100000101011 X
0o
b00000000000000000000001111011010 Z
b11111111111111110101110010111110 =
b00000000000000000110100000101011 (
b00000000000000000110100000101011 "-
0>
b00000000000000000110100000101011 )
0\
b00000000000000000000001111011010 !
b11111111111111110101110010111110 r
b000000000000000000000000000000000110100000101011 U
b00000000000000000000001111011010 V
b00000000000000000000001111011010 9
b0000000000000000000000000000000000000000000011101101010110100100 l
b0000000000000000000000000000000000000000000011101101010110100100 $
0"+
#161
1f
b00000000000000000110001111101110 -
b0000010001 ",
1o
b00000000000000000110100000101011 6
b00000000000000000110001111101110 E
b0000010000 "&
b00000000000000000110100000101011 7
1j
b00000000000000000110100000101011 [
1>
1\
b00000000000000000110100000101011 s
b00000000000000000110100000101011 "(
b00000000000000000110100000101011 k
b00000000000000000110100000101011 G
1H
b00000000000000000110100000101011 O
b0000010001 I
1"+
#166
0f
b00000000000000000010011001101110 4
b11111111111111110001010000001110 g
b00000000000000001101111100111011 h
b00000000000000000010011001101110 a
0j
b00000000000000000010011001101110 F
b000000000000000000000000000000001101111100111011 ""
b00000000000000000010011001101110 *
b11111111111111110001010000001110 ]
0H
b00000000000000001101111100111011 ^
b00000000000000001101111100111011 X
0o
b11111111111111110001010000001110 Z
b00000000000000000010011001101110 =
b00000000000000001101111100111011 (
b00000000000000001101111100111011 "-
0>
b00000000000000001101111100111011 )
0\
b11111111111111110001010000001110 !
b00000000000000000010011001101110 r
b000000000000000000000000000000001101111100111011 U
b11111111111111110001010000001110 V
b11111111111111110001010000001110 9
b0000000000000000000000000000000011011001011101100011000011000100 l
b0000000000000000000000000000000011011001011101100011000011000100 $
0"+
#171
1f
b00000000000000000110100000101011 -
b0000010010 ",
1o
b00000000000000001101111100111011 6
b00000000000000000110100000101011 E
b0000010001 "&
b00000000000000001101111100111011 7
1j
b00000000000000001101111100111011 [
1>
1\
b00000000000000001101111100111011 s
b00000000000000001101111100111011 "(
b00000000000000001101111100111011 k
b00000000000000001101111100111011 G
1H
b00000000000000001101111100111011 O
b0000010010 I
1"+
#176
0f
b00000000000000000001110001011110 4
b11111111111111111000111001001000 g
b00000000000000000011010110101000 h
b00000000000000000001110001011110 a
0j
b00000000000000000001110001011110 F
b000000000000000000000000000000000011010110101000 ""
b00000000000000000001110001011110 *
b11111111111111111000111001001000 ]
0H
b00000000000000000011010110101000 ^
b00000000000000000011010110101000 X
0o
b11111111111111111000111001001000 Z
b00000000000000000001110001011110 =
b00000000000000000011010110101000 (
b00000000000000000011010110101000 "-
0>
b00000000000000000011010110101000 )
0\
b11111111111111111000111001001000 !
b00000000000000000001110001011110 r
b000000000000000000000000000000000011010110101000 U
b11111111111111111000111001001000 V
b11111111111111111000111001001000 9
b0000000000000000000000000000000000110010100000111111010001000000 l
b0000000000000000000000000000000000110010100000111111010001000000 $
0"+
#181
1f
b00000000000000001101111100111011 -
b0000010011 ",
1o
b00000000000000000011010110101000 6
b00000000000000001101111100111011 E
b0000010010 "&
b00000000000000000011010110101000 7
1j
b00000000000000000011010110101000 [
1>
1\
b00000000000000000011010110101000 s
b00000000000000000011010110101000 "(
b00000000000000000011010110101000 k
b00000000000000000011010110101000 G
1H
b00000000000000000011010110101000 O
b0000010011 I
1"+
#186
0f
b00000000000000000111010100110000 4
b11111111111111110000110010000110 g
b00000000000000010001110100110101 h
b00000000000000000111010100110000 a
0j
b00000000000000000111010100110000 F
b000000000000000000000000000000010001110100110101 ""
b00000000000000000111010100110000 *
b11111111111111110000110010000110 ]
0H
b00000000000000010001110100110101 ^
b00000000000000010001110100110101 X
0o
b11111111111111110000110010000110 Z
b00000000000000000111010100110000 =
b00000000000000010001110100110101 (
b00000000000000010001110100110101 "-
0>
b00000000000000010001110100110101 )
0\
b11111111111111110000110010000110 !
b00000000000000000111010100110000 r
b000000000000000000000000000000010001110100110101 U
b11111111111111110000110010000110 V
b11111111111111110000110010000110 9
b0000000000000000000000000000000011100111100100001101011000100100 l
b0000000000000000000000000000000011100111100100001101011000100100 $
0"+
