test_run_dir/Tester2_should_test_HanningWithFIFO/HanningWithFIFO.vcd
$date
2020-10-13T02:46+0000
$end
$version
0.2
$end
$comment

$end
$timescale 1ns  $end
$scope module HanningWithFIFO $end
 $var wire 1 ) io_HanningSignal_ready $end
 $var wire 1 , _GEN_2 $end
 $var wire 1 / _T $end
 $var wire 32 1 io_signal_bits_value $end
 $var wire 1 2 io_signal_ready $end
 $var wire 1 ; BurstTransEn $end
 $var wire 1 C Hanningblock $end
 $var wire 32 W io_HanningSignal_bits_value $end
 $var wire 1 Z io_cosines_ready $end
 $var wire 1 ` BurstValid $end
 $var wire 32 j io_cosines_bits_value $end
 $var wire 32 l _GEN_1 $end
 $var wire 1 p io_HanningSignal_valid $end
 $var wire 1 r _GEN_4 $end
 $var wire 1 u io_signal_valid $end
 $var wire 1 v clock $end
 $var wire 1 "5 _GEN_0 $end
 $var wire 32 "= BurstReadCnt $end
 $var wire 1 "A reset $end
 $var wire 32 "C _GEN_3 $end
 $var wire 1 "G io_cosines_valid $end
 $var wire 1 "H HanningFIFO $end
  $scope module HanningFIFO $end
   $var wire 32 ! _GEN_43 $end
   $var wire 1 % io_full $end
   $var wire 32 ' _GEN_58 $end
   $var wire 32 ( _GEN_2 $end
   $var wire 32 + io_datain_value $end
   $var wire 1 - _GEN_5 $end
   $var wire 32 . _GEN_10 $end
   $var wire 32 6 _GEN_25 $end
   $var wire 32 7 _GEN_31 $end
   $var wire 1 9 _GEN_28 $end
   $var wire 1 F io_wr $end
   $var wire 32 L _GEN_48 $end
   $var wire 1 V _GEN_42 $end
   $var wire 32 [ _GEN_1 $end
   $var wire 32 c _GEN_39 $end
   $var wire 1 d clock $end
   $var wire 32 e _GEN_30 $end
   $var wire 32 f _GEN_24 $end
   $var wire 32 h _GEN_18 $end
   $var wire 32 i mem_value $end
   $var wire 32 t io_dataout_value $end
   $var wire 32 ~ _GEN_38 $end
   $var wire 32 "" _GEN_23 $end
   $var wire 32 "% _GEN_32 $end
   $var wire 1 "& io_rd $end
   $var wire 32 "+ _GEN_6 $end
   $var wire 1 ". reset $end
   $var wire 32 "/ rp $end
   $var wire 1 "0 _GEN_35 $end
   $var wire 32 "2 _GEN_29 $end
   $var wire 32 "3 _GEN_0 $end
   $var wire 32 "8 _GEN_17 $end
   $var wire 32 ": wp $end
   $var wire 32 "@ _GEN_52 $end
   $var wire 32 "F count $end
   $var wire 1 "L io_MorethanN $end
    $scope module mem_value $end
      $scope module _T_21 $end
       $var wire 32 * data $end
       $var wire 1 G en $end
       $var wire 1 T clk $end
       $var wire 1 b mask $end
       $var wire 12 q pipeline_addr_0 $end
       $var wire 1 | pipeline_valid_0 $end
       $var wire 12 ") addr $end
       $var wire 1 "< valid $end
       $var wire 32 "Q pipeline_data_0 $end
      $upscope $end
      $scope module _T_11 $end
       $var wire 12 3 addr $end
       $var wire 1 4 valid $end
       $var wire 1 ? clk $end
       $var wire 12 H pipeline_addr_0 $end
       $var wire 32 Y data $end
       $var wire 32 "* pipeline_data_0 $end
       $var wire 1 "4 mask $end
       $var wire 1 "9 pipeline_valid_0 $end
       $var wire 1 "M en $end
      $upscope $end
      $scope module _T_5 $end
       $var wire 1 < en $end
       $var wire 12 w addr $end
       $var wire 32 "? data $end
       $var wire 1 "B clk $end
      $upscope $end
      $scope module _T_33 $end
       $var wire 1 > clk $end
       $var wire 32 D data $end
       $var wire 1 U en $end
       $var wire 12 "( addr $end
      $upscope $end
    $upscope $end
  $upscope $end
  $scope module Hanningblock $end
   $var wire 2 " _GEN_11 $end
   $var wire 1 # _GEN_26 $end
   $var wire 1 & io_cosines_valid $end
   $var wire 32 0 _GEN_14 $end
   $var wire 32 : hanning_signal_value $end
   $var wire 2 = _GEN_7 $end
   $var wire 1 @ io_signal_valid $end
   $var wire 1 B _GEN_25 $end
   $var wire 48 E _GEN_40 $end
   $var wire 2 I _GEN_13 $end
   $var wire 1 J reset $end
   $var wire 32 M _GEN_16 $end
   $var wire 32 N cosinesbank_rcnt $end
   $var wire 64 R _GEN_37 $end
   $var wire 32 X _GEN_19 $end
   $var wire 2 \ _GEN_10 $end
   $var wire 1 ] io_HanningSignal_valid $end
   $var wire 2 ^ _GEN_6 $end
   $var wire 1 _ _T $end
   $var wire 2 a _GEN_9 $end
   $var wire 32 g _GEN_0 $end
   $var wire 32 k io_cosines_bits_value $end
   $var wire 2 n state $end
   $var wire 32 o io_signal_bits_value $end
   $var wire 1 s io_cosines_ready $end
   $var wire 48 x _GEN_39 $end
   $var wire 64 y _GEN_24 $end
   $var wire 32 z _GEN_33 $end
   $var wire 2 { _GEN_12 $end
   $var wire 32 "! cosinesbank_wcnt $end
   $var wire 1 "# io_signal_ready $end
   $var wire 32 "' io_HanningSignal_bits_value $end
   $var wire 32 ", _GEN_15 $end
   $var wire 1 "- clock $end
   $var wire 2 "7 _GEN_8 $end
   $var wire 32 "; cosinesbank_value $end
   $var wire 32 "D cosine_value_value $end
   $var wire 32 "E _GEN_41 $end
   $var wire 1 "I io_HanningSignal_ready $end
   $var wire 48 "J _GEN_38 $end
   $var wire 1 "N _GEN_17 $end
   $var wire 32 "O _GEN_23 $end
    $scope module cosinesbank_value $end
      $scope module _T_4 $end
       $var wire 10 $ addr $end
       $var wire 10 5 pipeline_addr_0 $end
       $var wire 1 8 en $end
       $var wire 32 O pipeline_data_0 $end
       $var wire 32 Q data $end
       $var wire 1 S pipeline_valid_0 $end
       $var wire 1 m clk $end
       $var wire 1 "$ valid $end
       $var wire 1 "1 mask $end
      $upscope $end
      $scope module _T_28 $end
       $var wire 32 A data $end
       $var wire 1 P en $end
       $var wire 1 "6 clk $end
       $var wire 10 "> addr $end
      $upscope $end
      $scope module _T_34 $end
       $var wire 32 K data $end
       $var wire 1 } en $end
       $var wire 10 "K addr $end
       $var wire 1 "P clk $end
      $upscope $end
    $upscope $end
  $upscope $end
$upscope $end
$enddefinitions $end
$dumpvars
b00 a
0C
b00000000000000000000000000000000 Y
0"L
0&
b00000000000000000000000000000000 '
b0000000000000000000000000000000000000000000000000000000000000000 R
b000000000000 w
b000000000000000000000000000000000000000000000000 E
0"P
b00000000000000000000000000000000 "8
b00000000000000000000000000000000 l
0V
b00000000000000000000000000000000 "2
b00000000000000000000000000000000 O
b00000000000000000000000000000000 :
0m
b0000000000 "K
b00000000000000000000000000000000 Q
b0000000000 $
b00000000000000000000000000000000 h
b00000000000000000000000000000000 K
b00000000000000000000000000000000 6
b000000000000 "(
b000000000000 q
b00000000000000000000000000000000 0
0"#
b00 "7
0/
b00000000000000000000000000000000 "*
0F
0)
b00 {
0]
0r
0"<
b00 ^
b00 I
0@
b00000000000000000000000000000000 A
b000000000000 3
b00000000000000000000000000000000 "C
0%
0v
b00000000000000000000000000000000 "=
b00000000000000000000000000000000 (
b000000000000000000000000000000000000000000000000 x
0p
b00 \
0>
b00 "
b00000000000000000000000000000000 k
b0000000000000000000000000000000000000000000000000000000000000000 y
1"1
1b
b00000000000000000000000000000000 e
0".
04
b00000000000000000000000000000000 i
b00000000000000000000000000000000 "D
0`
b00000000000000000000000000000000 "/
b000000000000 ")
0"$
b00000000000000000000000000000000 "@
b00000000000000000000000000000000 "+
0?
b00000000000000000000000000000000 t
b00000000000000000000000000000000 "%
0u
b0000000000 ">
b00000000000000000000000000000000 "'
b00000000000000000000000000000000 D
0;
1"4
0Z
0"N
0"9
b00000000000000000000000000000000 "!
b00000000000000000000000000000000 [
b00000000000000000000000000000000 !
b00000000000000000000000000000000 j
0T
0"H
b00000000000000000000000000000000 "O
b00000000000000000000000000000000 ":
09
0"-
b00000000000000000000000000000000 "Q
b00000000000000000000000000000000 f
0P
b00 n
0|
0J
b00000000000000000000000000000000 .
0-
b00000000000000000000000000000000 "E
b00000000000000000000000000000000 M
b0000000000 5
0"B
b00000000000000000000000000000000 *
b00000000000000000000000000000000 ",
b000000000000 H
0_
b00000000000000000000000000000000 ";
b00000000000000000000000000000000 X
0B
0"6
b00000000000000000000000000000000 o
0"M
0<
b00 =
b00000000000000000000000000000000 "?
0S
b00000000000000000000000000000000 ""
b00000000000000000000000000000000 7
0U
0"I
b00000000000000000000000000000000 N
08
0#
0d
b00000000000000000000000000000000 "3
b000000000000000000000000000000000000000000000000 "J
02
b00000000000000000000000000000000 g
0"0
b00000000000000000000000000000000 ~
0}
0"G
b00000000000000000000000000000000 L
b00000000000000000000000000000000 "F
b00000000000000000000000000000000 c
0"A
b00000000000000000000000000000000 1
b00000000000000000000000000000000 z
0G
0"&
b00000000000000000000000000000000 +
0s
b00000000000000000000000000000000 W
0,
0"5
$end
#0
1B
1"A
b00000000000000000000000000000001 "3
1J
b00000000000000000000000000000001 h
1"I
b00000000000000000000000000000001 "8
b00000000000000000000000000000001 [
1"N
1/
1P
1".
#1
1T
1?
1"P
1"6
1v
1d
1"B
1"-
1m
1>
#6
b00000000000000001010110100101110 Q
0"A
0"P
b00000000000000000000000000000001 g
0v
0"B
1"$
0J
1&
1Z
0"-
b00000000000000001010110100101110 j
0>
0".
1)
0T
0?
0"6
0d
1s
18
b00000000000000001010110100101110 k
1"G
0m
1_
#11
1"P
b00000000000000000000000000000010 g
1v
1"B
1S
b00000000000000001010110100101110 K
1"-
1>
1T
1?
1"6
1d
b00000000000000000000000000000001 "!
b0000000001 $
b00000000000000001010110100101110 O
1m
b00000000000000001010110100101110 A
#16
0"P
b00000000000000000000000000000001 g
0v
0"B
0"$
0&
0Z
0"-
0>
0T
0?
0"6
0d
0s
08
0"G
0m
0_
#21
1"P
1v
1"B
b0000000001 5
0S
1"-
1>
1T
1?
b00000000000000001010110100101110 "D
1"6
1d
1m
b00000000000000001010110100101110 "O
#26
0T
0?
0"P
0"6
0v
0d
0"B
0"-
0m
0>
#31
1T
1?
1"P
1"6
1v
1d
1"B
1"-
1m
1>
#36
0T
0?
0"P
0"6
0v
0d
0"B
0"-
0m
0>
#41
1T
1?
1"P
1"6
1v
1d
1"B
1"-
1m
1>
#46
0T
0?
0"P
0"6
0v
0d
0"B
0"-
0m
0>
#51
1T
1?
1"P
1"6
1v
1d
1"B
1"-
1m
1>
#56
0T
0?
0"P
0"6
0v
0d
0"B
0"-
0m
0>
#61
1T
1?
1"P
1"6
1v
1d
1"B
1"-
1m
1>
#66
b00000000000000000110011111011110 Q
0"P
b00000000000000000000000000000010 g
0v
0"B
1"$
1&
1Z
0"-
b00000000000000000110011111011110 j
0>
0T
0?
0"6
0d
1s
18
b00000000000000000110011111011110 k
1"G
0m
1_
#71
1"P
b00000000000000000000000000000011 g
1v
1"B
1S
1"-
1>
1T
1?
1"6
1d
b00000000000000000000000000000010 "!
b0000000010 $
b00000000000000000110011111011110 O
1m
#76
0"P
b00000000000000000000000000000010 g
0v
0"B
0"$
0&
0Z
0"-
0>
0T
0?
0"6
0d
0s
08
0"G
0m
0_
#81
1T
1?
1"P
1"6
1v
1d
1"B
b0000000010 5
0S
1"-
1m
1>
#86
0T
0?
0"P
0"6
0v
0d
0"B
0"-
0m
0>
#91
1T
1?
1"P
1"6
1v
1d
1"B
1"-
1m
1>
#96
0T
0?
0"P
0"6
0v
0d
0"B
0"-
0m
0>
#101
1T
1?
1"P
1"6
1v
1d
1"B
1"-
1m
1>
#106
0T
0?
0"P
0"6
0v
0d
0"B
0"-
0m
0>
#111
1T
1?
1"P
1"6
1v
1d
1"B
1"-
1m
1>
#116
0T
0?
0"P
0"6
0v
0d
0"B
0"-
0m
0>
#121
1T
1?
1"P
1"6
1v
1d
1"B
1"-
1m
1>
#126
b11111111111111111100101000110000 Q
0"P
b00000000000000000000000000000011 g
0v
0"B
1"$
1&
1Z
0"-
b11111111111111111100101000110000 j
0>
0T
0?
0"6
0d
1s
18
b11111111111111111100101000110000 k
1"G
0m
1_
#131
1"P
b00000000000000000000000000000100 g
1v
1"B
1S
1"-
1>
1T
1?
1"6
1d
b00000000000000000000000000000011 "!
b0000000011 $
b11111111111111111100101000110000 O
1m
#136
0"P
b00000000000000000000000000000011 g
0v
0"B
0"$
0&
0Z
0"-
0>
0T
0?
0"6
0d
0s
08
0"G
0m
0_
#141
1T
1?
1"P
1"6
1v
1d
1"B
b0000000011 5
0S
1"-
1m
1>
#146
0T
0?
0"P
0"6
0v
0d
0"B
0"-
0m
0>
#151
1T
1?
1"P
1"6
1v
1d
1"B
1"-
1m
1>
#156
0T
0?
0"P
0"6
0v
0d
0"B
0"-
0m
0>
#161
1T
1?
1"P
1"6
1v
1d
1"B
1"-
1m
1>
#166
0T
0?
0"P
0"6
0v
0d
0"B
0"-
0m
0>
#171
1T
1?
1"P
1"6
1v
1d
1"B
1"-
1m
1>
#176
0T
0?
0"P
0"6
0v
0d
0"B
0"-
0m
0>
#181
1T
1?
1"P
1"6
1v
1d
1"B
1"-
1m
1>
#186
b00000000000000000111110000100110 Q
0"P
b00000000000000000000000000000100 g
0v
0"B
1"$
1&
1Z
0"-
b00000000000000000111110000100110 j
0>
0T
0?
0"6
0d
1s
18
b00000000000000000111110000100110 k
1"G
0m
1_
#191
1"P
b00000000000000000000000000000101 g
1v
1"B
1S
1"-
1>
1T
1?
1"6
1d
b00000000000000000000000000000100 "!
b0000000100 $
b00000000000000000111110000100110 O
1m
#196
0"P
b00000000000000000000000000000100 g
0v
0"B
0"$
0&
0Z
0"-
0>
0T
0?
0"6
0d
0s
08
0"G
0m
0_
#201
1T
1?
1"P
1"6
1v
1d
1"B
b0000000100 5
0S
1"-
1m
1>
#206
0T
0?
0"P
0"6
0v
0d
0"B
0"-
0m
0>
#211
1T
1?
1"P
1"6
1v
1d
1"B
1"-
1m
1>
#216
0T
0?
0"P
0"6
0v
0d
0"B
0"-
0m
0>
#221
1T
1?
1"P
1"6
1v
1d
1"B
1"-
1m
1>
#226
0T
0?
0"P
0"6
0v
0d
0"B
0"-
0m
0>
#231
1T
1?
1"P
1"6
1v
1d
1"B
1"-
1m
1>
#236
0T
0?
0"P
0"6
0v
0d
0"B
0"-
0m
0>
#241
1T
1?
1"P
1"6
1v
1d
1"B
1"-
1m
1>
#246
b11111111111111110100111001000100 Q
0"P
b00000000000000000000000000000101 g
0v
0"B
1"$
1&
1Z
0"-
b11111111111111110100111001000100 j
0>
0T
0?
0"6
0d
1s
18
b11111111111111110100111001000100 k
1"G
0m
1_
#251
1"P
b00000000000000000000000000000110 g
1v
1"B
1S
1"-
1>
1T
1?
1"6
1d
b00000000000000000000000000000101 "!
b0000000101 $
b11111111111111110100111001000100 O
1m
#256
0"P
b00000000000000000000000000000101 g
0v
0"B
0"$
0&
0Z
0"-
0>
0T
0?
0"6
0d
0s
08
0"G
0m
0_
#261
1T
1?
1"P
1"6
1v
1d
1"B
b0000000101 5
0S
1"-
1m
1>
#266
0T
0?
0"P
0"6
0v
0d
0"B
0"-
0m
0>
#271
1T
1?
1"P
1"6
1v
1d
1"B
1"-
1m
1>
#276
0T
0?
0"P
0"6
0v
0d
0"B
0"-
0m
0>
#281
1T
1?
1"P
1"6
1v
1d
1"B
1"-
1m
1>
#286
0T
0?
0"P
0"6
0v
0d
0"B
0"-
0m
0>
#291
1T
1?
1"P
1"6
1v
1d
1"B
1"-
1m
1>
#296
0T
0?
0"P
0"6
0v
0d
0"B
0"-
0m
0>
#301
1T
1?
1"P
1"6
1v
1d
1"B
1"-
1m
1>
#306
b00000000000000000111011111101110 Q
0"P
b00000000000000000000000000000110 g
0v
0"B
1"$
1&
1Z
0"-
b00000000000000000111011111101110 j
0>
0T
0?
0"6
0d
1s
18
b00000000000000000111011111101110 k
1"G
0m
1_
#311
1"P
b00000000000000000000000000000111 g
1v
1"B
1S
1"-
1>
1T
1?
1"6
1d
b00000000000000000000000000000110 "!
b0000000110 $
b00000000000000000111011111101110 O
1m
#316
0"P
b00000000000000000000000000000110 g
0v
0"B
0"$
0&
0Z
0"-
0>
0T
0?
0"6
0d
0s
08
0"G
0m
0_
#321
1T
1?
1"P
1"6
1v
1d
1"B
b0000000110 5
0S
1"-
1m
1>
#326
0T
0?
0"P
0"6
0v
0d
0"B
0"-
0m
0>
#331
1T
1?
1"P
1"6
1v
1d
1"B
1"-
1m
1>
#336
0T
0?
0"P
0"6
0v
0d
0"B
0"-
0m
0>
#341
1T
1?
1"P
1"6
1v
1d
1"B
1"-
1m
1>
#346
0T
0?
0"P
0"6
0v
0d
0"B
0"-
0m
0>
#351
1T
1?
1"P
1"6
1v
1d
1"B
1"-
1m
1>
#356
0T
0?
0"P
0"6
0v
0d
0"B
0"-
0m
0>
#361
1T
1?
1"P
1"6
1v
1d
1"B
1"-
1m
1>
#366
b00000000000000001000111000011100 Q
0"P
b00000000000000000000000000000111 g
0v
0"B
1"$
1&
1Z
0"-
b00000000000000001000111000011100 j
0>
0T
0?
0"6
0d
1s
18
b00000000000000001000111000011100 k
1"G
0m
1_
#371
1"P
b00000000000000000000000000001000 g
1v
1"B
1S
1"-
1>
1T
1?
1"6
1d
b00000000000000000000000000000111 "!
b0000000111 $
b00000000000000001000111000011100 O
1m
#376
0"P
b00000000000000000000000000000111 g
0v
0"B
0"$
0&
0Z
0"-
0>
0T
0?
0"6
0d
0s
08
0"G
0m
0_
#381
1T
1?
1"P
1"6
1v
1d
1"B
b0000000111 5
0S
1"-
1m
1>
#386
0T
0?
0"P
0"6
0v
0d
0"B
0"-
0m
0>
#391
1T
1?
1"P
1"6
1v
1d
1"B
1"-
1m
1>
#396
0T
0?
0"P
0"6
0v
0d
0"B
0"-
0m
0>
#401
1T
1?
1"P
1"6
1v
1d
1"B
1"-
1m
1>
#406
0T
0?
0"P
0"6
0v
0d
0"B
0"-
0m
0>
#411
1T
1?
1"P
1"6
1v
1d
1"B
1"-
1m
1>
#416
0T
0?
0"P
0"6
0v
0d
0"B
0"-
0m
0>
#421
1T
1?
1"P
1"6
1v
1d
1"B
1"-
1m
1>
#426
b11111111111111111001100111111100 Q
0"P
b00000000000000000000000000001000 g
0v
0"B
1"$
1&
1Z
0"-
b11111111111111111001100111111100 j
0>
0T
0?
0"6
0d
1s
18
b11111111111111111001100111111100 k
1"G
0m
1_
#431
1"P
b00000000000000000000000000001001 g
1v
1"B
1S
1"-
1>
1T
1?
1"6
1d
b00000000000000000000000000001000 "!
b0000001000 $
b11111111111111111001100111111100 O
1m
#436
0"P
b00000000000000000000000000001000 g
0v
0"B
0"$
0&
0Z
0"-
0>
0T
0?
0"6
0d
0s
08
0"G
0m
0_
#441
1T
1?
1"P
1"6
1v
1d
1"B
b0000001000 5
0S
1"-
1m
1>
#446
0T
0?
0"P
0"6
0v
0d
0"B
0"-
0m
0>
#451
1T
1?
1"P
1"6
1v
1d
1"B
1"-
1m
1>
#456
0T
0?
0"P
0"6
0v
0d
0"B
0"-
0m
0>
#461
1T
1?
1"P
1"6
1v
1d
1"B
1"-
1m
1>
#466
0T
0?
0"P
0"6
0v
0d
0"B
0"-
0m
0>
#471
1T
1?
1"P
1"6
1v
1d
1"B
1"-
1m
1>
#476
0T
0?
0"P
0"6
0v
0d
0"B
0"-
0m
0>
#481
1T
1?
1"P
1"6
1v
1d
1"B
1"-
1m
1>
#486
b11111111111111111000010010010100 Q
0"P
b00000000000000000000000000001001 g
0v
0"B
1"$
1&
1Z
0"-
b11111111111111111000010010010100 j
0>
0T
0?
0"6
0d
1s
18
b11111111111111111000010010010100 k
1"G
0m
1_
#491
1"P
b00000000000000000000000000001010 g
1v
1"B
1S
1"-
1>
1T
1?
1"6
1d
b00000000000000000000000000001001 "!
b0000001001 $
b11111111111111111000010010010100 O
1m
#496
0"P
b00000000000000000000000000001001 g
0v
0"B
0"$
0&
0Z
0"-
0>
0T
0?
0"6
0d
0s
08
0"G
0m
0_
#501
1T
1?
1"P
1"6
1v
1d
1"B
b0000001001 5
0S
1"-
1m
1>
#506
0T
0?
0"P
0"6
0v
0d
0"B
0"-
0m
0>
#511
1T
1?
1"P
1"6
1v
1d
1"B
1"-
1m
1>
#516
0T
0?
0"P
0"6
0v
0d
0"B
0"-
0m
0>
#521
1T
1?
1"P
1"6
1v
1d
1"B
1"-
1m
1>
#526
0T
0?
0"P
0"6
0v
0d
0"B
0"-
0m
0>
#531
1T
1?
1"P
1"6
1v
1d
1"B
1"-
1m
1>
#536
0T
0?
0"P
0"6
0v
0d
0"B
0"-
0m
0>
#541
1T
1?
1"P
1"6
1v
1d
1"B
1"-
1m
1>
#546
b11111111111111110101000011011000 Q
0"P
b00000000000000000000000000001010 g
0v
0"B
1"$
1&
1Z
0"-
b11111111111111110101000011011000 j
0>
0T
0?
0"6
0d
1s
18
b11111111111111110101000011011000 k
1"G
0m
1_
#551
1"P
b00000000000000000000000000001011 g
1v
1"B
1S
1"-
1>
1T
1?
1"6
1d
b00000000000000000000000000001010 "!
b0000001010 $
b11111111111111110101000011011000 O
1m
#556
0"P
b00000000000000000000000000001010 g
0v
0"B
0"$
0&
0Z
0"-
0>
0T
0?
0"6
0d
0s
08
0"G
0m
0_
#561
1T
1?
1"P
1"6
1v
1d
1"B
b0000001010 5
0S
1"-
1m
1>
#566
0T
0?
0"P
0"6
0v
0d
0"B
0"-
0m
0>
#571
1T
1?
1"P
1"6
1v
1d
1"B
1"-
1m
1>
#576
0T
0?
0"P
0"6
0v
0d
0"B
0"-
0m
0>
#581
1T
1?
1"P
1"6
1v
1d
1"B
1"-
1m
1>
#586
0T
0?
0"P
0"6
0v
0d
0"B
0"-
0m
0>
#591
1T
1?
1"P
1"6
1v
1d
1"B
1"-
1m
1>
#596
0T
0?
0"P
0"6
0v
0d
0"B
0"-
0m
0>
#601
1T
1?
1"P
1"6
1v
1d
1"B
1"-
1m
1>
#606
b11111111111111111010010001101100 Q
0"P
b00000000000000000000000000001011 g
0v
0"B
1"$
1&
1Z
0"-
b11111111111111111010010001101100 j
0>
0T
0?
0"6
0d
1s
18
b11111111111111111010010001101100 k
1"G
0m
1_
#611
1"P
b00000000000000000000000000001100 g
1v
1"B
1S
1"-
1>
1T
1?
1"6
1d
b00000000000000000000000000001011 "!
b0000001011 $
b11111111111111111010010001101100 O
1m
#616
0"P
b00000000000000000000000000001011 g
0v
0"B
0"$
0&
0Z
0"-
0>
0T
0?
0"6
0d
0s
08
0"G
0m
0_
#621
1T
1?
1"P
1"6
1v
1d
1"B
b0000001011 5
0S
1"-
1m
1>
#626
0T
0?
0"P
0"6
0v
0d
0"B
0"-
0m
0>
#631
1T
1?
1"P
1"6
1v
1d
1"B
1"-
1m
1>
#636
0T
0?
0"P
0"6
0v
0d
0"B
0"-
0m
0>
#641
1T
1?
1"P
1"6
1v
1d
1"B
1"-
1m
1>
#646
0T
0?
0"P
0"6
0v
0d
0"B
0"-
0m
0>
#651
1T
1?
1"P
1"6
1v
1d
1"B
1"-
1m
1>
#656
0T
0?
0"P
0"6
0v
0d
0"B
0"-
0m
0>
#661
1T
1?
1"P
1"6
1v
1d
1"B
1"-
1m
1>
#666
b00000000000000001011101011001100 Q
0"P
b00000000000000000000000000001100 g
0v
0"B
1"$
1&
1Z
0"-
b00000000000000001011101011001100 j
0>
0T
0?
0"6
0d
1s
18
b00000000000000001011101011001100 k
1"G
0m
1_
#671
1"P
b00000000000000000000000000001101 g
1v
1"B
1S
1"-
1>
1T
1?
1"6
1d
b00000000000000000000000000001100 "!
b0000001100 $
b00000000000000001011101011001100 O
1m
#676
0"P
b00000000000000000000000000001100 g
0v
0"B
0"$
0&
0Z
0"-
0>
0T
0?
0"6
0d
0s
08
0"G
0m
0_
#681
1T
1?
1"P
1"6
1v
1d
1"B
b0000001100 5
0S
1"-
1m
1>
#686
0T
0?
0"P
0"6
0v
0d
0"B
0"-
0m
0>
#691
1T
1?
1"P
1"6
1v
1d
1"B
1"-
1m
1>
#696
0T
0?
0"P
0"6
0v
0d
0"B
0"-
0m
0>
#701
1T
1?
1"P
1"6
1v
1d
1"B
1"-
1m
1>
#706
0T
0?
0"P
0"6
0v
0d
0"B
0"-
0m
0>
#711
1T
1?
1"P
1"6
1v
1d
1"B
1"-
1m
1>
#716
0T
0?
0"P
0"6
0v
0d
0"B
0"-
0m
0>
#721
1T
1?
1"P
1"6
1v
1d
1"B
1"-
1m
1>
#726
b11111111111111110100011000010100 Q
0"P
b00000000000000000000000000001101 g
0v
0"B
1"$
1&
1Z
0"-
b11111111111111110100011000010100 j
0>
0T
0?
0"6
0d
1s
18
b11111111111111110100011000010100 k
1"G
0m
1_
#731
1"P
b00000000000000000000000000001110 g
1v
1"B
1S
1"-
1>
1T
1?
1"6
1d
b00000000000000000000000000001101 "!
b0000001101 $
b11111111111111110100011000010100 O
1m
#736
0"P
b00000000000000000000000000001101 g
0v
0"B
0"$
0&
0Z
0"-
0>
0T
0?
0"6
0d
0s
08
0"G
0m
0_
#741
1T
1?
1"P
1"6
1v
1d
1"B
b0000001101 5
0S
1"-
1m
1>
#746
0T
0?
0"P
0"6
0v
0d
0"B
0"-
0m
0>
#751
1T
1?
1"P
1"6
1v
1d
1"B
1"-
1m
1>
#756
0T
0?
0"P
0"6
0v
0d
0"B
0"-
0m
0>
#761
1T
1?
1"P
1"6
1v
1d
1"B
1"-
1m
1>
#766
0T
0?
0"P
0"6
0v
0d
0"B
0"-
0m
0>
#771
1T
1?
1"P
1"6
1v
1d
1"B
1"-
1m
1>
#776
0T
0?
0"P
0"6
0v
0d
0"B
0"-
0m
0>
#781
1T
1?
1"P
1"6
1v
1d
1"B
1"-
1m
1>
#786
b11111111111111111000111000100000 Q
0"P
b00000000000000000000000000001110 g
0v
0"B
1"$
1&
1Z
0"-
b11111111111111111000111000100000 j
0>
0T
0?
0"6
0d
1s
18
b11111111111111111000111000100000 k
1"G
0m
1_
#791
1"P
b00000000000000000000000000001111 g
1v
1"B
1S
1"-
1>
1T
1?
1"6
1d
b00000000000000000000000000001110 "!
b0000001110 $
b11111111111111111000111000100000 O
1m
#796
0"P
b00000000000000000000000000001110 g
0v
0"B
0"$
0&
0Z
0"-
0>
0T
0?
0"6
0d
0s
08
0"G
0m
0_
#801
1T
1?
1"P
1"6
1v
1d
1"B
b0000001110 5
0S
1"-
1m
1>
#806
0T
0?
0"P
0"6
0v
0d
0"B
0"-
0m
0>
#811
1T
1?
1"P
1"6
1v
1d
1"B
1"-
1m
1>
#816
0T
0?
0"P
0"6
0v
0d
0"B
0"-
0m
0>
#821
1T
1?
1"P
1"6
1v
1d
1"B
1"-
1m
1>
#826
0T
0?
0"P
0"6
0v
0d
0"B
0"-
0m
0>
#831
1T
1?
1"P
1"6
1v
1d
1"B
1"-
1m
1>
#836
0T
0?
0"P
0"6
0v
0d
0"B
0"-
0m
0>
#841
1T
1?
1"P
1"6
1v
1d
1"B
1"-
1m
1>
#846
b11111111111111111100000111100010 Q
0"P
b00000000000000000000000000001111 g
0v
0"B
1"$
1&
1Z
0"-
b11111111111111111100000111100010 j
0>
0T
0?
0"6
0d
1s
18
b11111111111111111100000111100010 k
1"G
0m
1_
#851
1"P
b00000000000000000000000000010000 g
1v
1"B
1S
1"-
1>
1T
1?
1"6
1d
b00000000000000000000000000001111 "!
b0000001111 $
b11111111111111111100000111100010 O
1m
#856
0"P
b00000000000000000000000000001111 g
0v
0"B
0"$
0&
0Z
0"-
0>
0T
0?
0"6
0d
0s
08
0"G
0m
0_
#861
1T
1?
1"P
1"6
1v
1d
1"B
b0000001111 5
0S
1"-
1m
1>
#866
0T
0?
0"P
0"6
0v
0d
0"B
0"-
0m
0>
#871
1T
1?
1"P
1"6
1v
1d
1"B
1"-
1m
1>
#876
0T
0?
0"P
0"6
0v
0d
0"B
0"-
0m
0>
#881
1T
1?
1"P
1"6
1v
1d
1"B
1"-
1m
1>
#886
0T
0?
0"P
0"6
0v
0d
0"B
0"-
0m
0>
#891
1T
1?
1"P
1"6
1v
1d
1"B
1"-
1m
1>
#896
0T
0?
0"P
0"6
0v
0d
0"B
0"-
0m
0>
#901
1T
1?
1"P
1"6
1v
1d
1"B
1"-
1m
1>
#906
b11111111111111111010100010011110 Q
0"P
b00000000000000000000000000010000 g
0v
0"B
1"$
1&
1Z
0"-
b11111111111111111010100010011110 j
0>
0T
0?
0"6
0d
1s
18
b11111111111111111010100010011110 k
1"G
0m
1_
#911
1"P
b00000000000000000000000000010001 g
1v
1"B
1S
1"-
1>
1T
1?
1"6
1d
b00000000000000000000000000010000 "!
b0000010000 $
b11111111111111111010100010011110 O
1m
#916
0"P
b00000000000000000000000000010000 g
0v
0"B
0"$
0&
0Z
0"-
0>
0T
0?
0"6
0d
0s
08
0"G
0m
0_
#921
1T
1?
1"P
1"6
1v
1d
1"B
b0000010000 5
0S
1"-
1m
1>
#926
0T
0?
0"P
0"6
0v
0d
0"B
0"-
0m
0>
#931
1T
1?
1"P
1"6
1v
1d
1"B
1"-
1m
1>
#936
0T
0?
0"P
0"6
0v
0d
0"B
0"-
0m
0>
#941
1T
1?
1"P
1"6
1v
1d
1"B
1"-
1m
1>
#946
0T
0?
0"P
0"6
0v
0d
0"B
0"-
0m
0>
#951
1T
1?
1"P
1"6
1v
1d
1"B
1"-
1m
1>
#956
0T
0?
0"P
0"6
0v
0d
0"B
0"-
0m
0>
#961
1T
1?
1"P
1"6
1v
1d
1"B
1"-
1m
1>
#966
b11111111111111110110100010011000 Q
0"P
b00000000000000000000000000010001 g
0v
0"B
1"$
1&
1Z
0"-
b11111111111111110110100010011000 j
0>
0T
0?
0"6
0d
1s
18
b11111111111111110110100010011000 k
1"G
0m
1_
#971
1"P
b00000000000000000000000000010010 g
1v
1"B
1S
1"-
1>
1T
1?
1"6
1d
b00000000000000000000000000010001 "!
b0000010001 $
b11111111111111110110100010011000 O
1m
#976
0"P
b00000000000000000000000000010001 g
0v
0"B
0"$
0&
0Z
0"-
0>
0T
0?
0"6
0d
0s
08
0"G
0m
0_
