test_run_dir/Tester3_should_test_SpectrogramGen/SpectrogramGen.vcd
$date
2020-10-13T03:20+0000
$end
$version
0.2
$end
$comment

$end
$timescale 1ns  $end
$scope module SpectrogramGen $end
 $var wire 1 ! ComplexEnergy_1 $end
 $var wire 10 " _GEN_2 $end
 $var wire 1 # _T $end
 $var wire 1 % io_FFTsignal_valid $end
 $var wire 1 & _GEN_5 $end
 $var wire 32 ' io_Spectrogram_bits_value $end
 $var wire 1 ) io_Spectrogram_ready $end
 $var wire 32 , io_FFTsignal_bits_im $end
 $var wire 32 / SpectrogramReg_value $end
 $var wire 32 0 _GEN_4 $end
 $var wire 1 1 clock $end
 $var wire 32 2 io_FFTsignal_bits_re $end
 $var wire 1 3 io_FFTsignal_ready $end
 $var wire 10 4 SpectrogramCnt $end
 $var wire 1 6 ComplexEnergy $end
 $var wire 1 9 io_Spectrogram_valid $end
 $var wire 32 < _GEN_0 $end
 $var wire 10 = _GEN_9 $end
 $var wire 1 ? reset $end
 $var wire 1 @ _GEN_3 $end
  $scope module ComplexEnergy_1 $end
   $var wire 32 ( io_res_value $end
   $var wire 32 * io_op2_re $end
   $var wire 32 + io_op1_im $end
   $var wire 32 5 _GEN_1 $end
   $var wire 32 : io_op1_re $end
   $var wire 32 > io_op2_im $end
   $var wire 64 B _T $end
   $var wire 48 D _GEN_0 $end
  $upscope $end
  $scope module ComplexEnergy $end
   $var wire 48 $ _GEN_0 $end
   $var wire 32 - io_op2_re $end
   $var wire 32 . io_res_value $end
   $var wire 32 7 io_op1_im $end
   $var wire 32 8 _GEN_1 $end
   $var wire 64 ; _T $end
   $var wire 32 A io_op1_re $end
   $var wire 32 C io_op2_im $end
  $upscope $end
$upscope $end
$enddefinitions $end
$dumpvars
0%
b00000000000000000000000000000000 <
0&
b00000000000000000000000000000000 '
b000000000000000000000000000000000000000000000000 D
b00000000000000000000000000000000 (
b00000000000000000000000000000000 >
06
b00000000000000000000000000000000 7
0!
b00000000000000000000000000000000 8
0#
09
b00000000000000000000000000000000 :
b00000000000000000000000000000000 2
b000000000000000000000000000000000000000000000000 $
b0000000000 "
03
b00000000000000000000000000000000 5
b0000000000000000000000000000000000000000000000000000000000000000 B
b00000000000000000000000000000000 .
b00000000000000000000000000000000 /
b0000000000 4
b0000000000 =
b00000000000000000000000000000000 0
01
b00000000000000000000000000000000 *
0)
0?
b00000000000000000000000000000000 +
b00000000000000000000000000000000 A
b00000000000000000000000000000000 ,
0@
b00000000000000000000000000000000 -
b00000000000000000000000000000000 C
b0000000000000000000000000000000000000000000000000000000000000000 ;
$end
#0
1?
b0000000001 "
1&
19
b0000000001 =
#1
11
#6
b0000000000000000000000000000000000001111100111001001110001000000 B
b11111111111111111100000011001000 -
b00000000000000000010011110100001 <
1%
b11111111111111111011000110010110 C
b00000000000000000010011110100001 .
b00000000000000000010011110100001 5
b000000000000000000000000000000000010011110100001 D
b00000000000000000010011110100001 (
b11111111111111111011000110010110 7
b11111111111111111011000110010110 >
1)
b00000000000000000010011110100001 0
0?
01
b00000000000000000010011110100001 8
1#
b11111111111111111100000011001000 2
b11111111111111111100000011001000 *
b000000000000000000000000000000000010011110100001 $
b11111111111111111011000110010110 +
b11111111111111111100000011001000 :
b11111111111111111100000011001000 A
b11111111111111111011000110010110 ,
b0000000000000000000000000000000000001111100111001001110001000000 ;
#11
b0000000001 4
11
b0000000010 "
b00000000000000000010011110100001 '
b0000000010 =
b00000000000000000010011110100001 /
#16
b0000000000000000000000000000000000000000001001101101111000010000 B
b11111111111111111111100111000100 -
b00000000000000000001001101111011 <
0%
b00000000000000000100011001011000 C
b00000000000000000001001101111011 .
b00000000000000000001001101111011 5
b000000000000000000000000000000000001001101111011 D
b00000000000000000001001101111011 (
b00000000000000000100011001011000 7
b00000000000000000100011001011000 >
b00000000000000000001001101111011 0
01
b00000000000000000001001101111011 8
0#
b11111111111111111111100111000100 2
b11111111111111111111100111000100 *
b000000000000000000000000000000000001001101111011 $
b00000000000000000100011001011000 +
b11111111111111111111100111000100 :
b11111111111111111111100111000100 A
b00000000000000000100011001011000 ,
b0000000000000000000000000000000000000000001001101101111000010000 ;
#21
b0000000010 4
11
b0000000011 "
b00000000000000000001001101111011 '
b0000000011 =
b00000000000000000001001101111011 /
#26
b0000000000000000000000000000000000110011010001001001000100000000 B
b11111111111111111000110101110000 -
b00000000000000010011000010000110 <
b11111111111111110000000101100000 C
b00000000000000010011000010000110 .
b00000000000000010011000010000110 5
b000000000000000000000000000000010011000010000110 D
b00000000000000010011000010000110 (
b11111111111111110000000101100000 7
b11111111111111110000000101100000 >
b00000000000000010011000010000110 0
01
b00000000000000010011000010000110 8
b11111111111111111000110101110000 2
b11111111111111111000110101110000 *
b000000000000000000000000000000010011000010000110 $
b11111111111111110000000101100000 +
b11111111111111111000110101110000 :
b11111111111111111000110101110000 A
b11111111111111110000000101100000 ,
b0000000000000000000000000000000000110011010001001001000100000000 ;
#31
b0000000011 4
11
b0000000100 "
b00000000000000010011000010000110 '
b0000000100 =
b00000000000000010011000010000110 /
#36
b0000000000000000000000000000000001001010001111010011010100010000 B
b00000000000000001000100111011100 -
b00000000000000001100011001101000 <
b00000000000000001011001001001010 C
b00000000000000001100011001101000 .
b00000000000000001100011001101000 5
b000000000000000000000000000000001100011001101000 D
b00000000000000001100011001101000 (
b00000000000000001011001001001010 7
b00000000000000001011001001001010 >
b00000000000000001100011001101000 0
01
b00000000000000001100011001101000 8
b00000000000000001000100111011100 2
b00000000000000001000100111011100 *
b000000000000000000000000000000001100011001101000 $
b00000000000000001011001001001010 +
b00000000000000001000100111011100 :
b00000000000000001000100111011100 A
b00000000000000001011001001001010 ,
b0000000000000000000000000000000001001010001111010011010100010000 ;
#41
b0000000100 4
11
b0000000101 "
b00000000000000001100011001101000 '
b0000000101 =
b00000000000000001100011001101000 /
#46
b0000000000000000000000000000000001001100001111001111011010010000 B
b11111111111111110111010001001100 -
b00000000000000010001111001100111 <
b11111111111111110001100000001100 C
b00000000000000010001111001100111 .
b00000000000000010001111001100111 5
b000000000000000000000000000000010001111001100111 D
b00000000000000010001111001100111 (
b11111111111111110001100000001100 7
b11111111111111110001100000001100 >
b00000000000000010001111001100111 0
01
b00000000000000010001111001100111 8
b11111111111111110111010001001100 2
b11111111111111110111010001001100 *
b000000000000000000000000000000010001111001100111 $
b11111111111111110001100000001100 +
b11111111111111110111010001001100 :
b11111111111111110111010001001100 A
b11111111111111110001100000001100 ,
b0000000000000000000000000000000001001100001111001111011010010000 ;
#51
b0000000101 4
11
b0000000110 "
b00000000000000010001111001100111 '
b0000000110 =
b00000000000000010001111001100111 /
#56
b0000000000000000000000000000000000011000100101110110111001000000 B
b00000000000000000100111101011000 -
b00000000000000000101111001010100 <
b11111111111111110111101001100010 C
b00000000000000000101111001010100 .
b00000000000000000101111001010100 5
b000000000000000000000000000000000101111001010100 D
b00000000000000000101111001010100 (
b11111111111111110111101001100010 7
b11111111111111110111101001100010 >
b00000000000000000101111001010100 0
01
b00000000000000000101111001010100 8
b00000000000000000100111101011000 2
b00000000000000000100111101011000 *
b000000000000000000000000000000000101111001010100 $
b11111111111111110111101001100010 +
b00000000000000000100111101011000 :
b00000000000000000100111101011000 A
b11111111111111110111101001100010 ,
b0000000000000000000000000000000000011000100101110110111001000000 ;
#61
b0000000110 4
11
b0000000111 "
b00000000000000000101111001010100 '
b0000000111 =
b00000000000000000101111001010100 /
#66
b0000000000000000000000000000000000011010010110001000010000000000 B
b00000000000000000101001000100000 -
b00000000000000000001111000011000 <
b00000000000000000001111011111010 C
b00000000000000000001111000011000 .
b00000000000000000001111000011000 5
b000000000000000000000000000000000001111000011000 D
b00000000000000000001111000011000 (
b00000000000000000001111011111010 7
b00000000000000000001111011111010 >
b00000000000000000001111000011000 0
01
b00000000000000000001111000011000 8
b00000000000000000101001000100000 2
b00000000000000000101001000100000 *
b000000000000000000000000000000000001111000011000 $
b00000000000000000001111011111010 +
b00000000000000000101001000100000 :
b00000000000000000101001000100000 A
b00000000000000000001111011111010 ,
b0000000000000000000000000000000000011010010110001000010000000000 ;
#71
b0000000111 4
11
b0000001000 "
b00000000000000000001111000011000 '
b0000001000 =
b00000000000000000001111000011000 /
#76
b0000000000000000000000000000000001011111000110011100000001000000 B
b11111111111111110110001111111000 -
b00000000000000001000100111111110 <
b00000000000000000110100011001010 C
b00000000000000001000100111111110 .
b00000000000000001000100111111110 5
b000000000000000000000000000000001000100111111110 D
b00000000000000001000100111111110 (
b00000000000000000110100011001010 7
b00000000000000000110100011001010 >
b00000000000000001000100111111110 0
01
b00000000000000001000100111111110 8
b11111111111111110110001111111000 2
b11111111111111110110001111111000 *
b000000000000000000000000000000001000100111111110 $
b00000000000000000110100011001010 +
b11111111111111110110001111111000 :
b11111111111111110110001111111000 A
b00000000000000000110100011001010 ,
b0000000000000000000000000000000001011111000110011100000001000000 ;
#81
b0000001000 4
11
b0000001001 "
b00000000000000001000100111111110 '
b0000001001 =
b00000000000000001000100111111110 /
#86
b0000000000000000000000000000000001001000100001000001000000000000 B
b00000000000000001000100001000000 -
b00000000000000000101001001110000 <
b00000000000000000011001001101000 C
b00000000000000000101001001110000 .
b00000000000000000101001001110000 5
b000000000000000000000000000000000101001001110000 D
b00000000000000000101001001110000 (
b00000000000000000011001001101000 7
b00000000000000000011001001101000 >
b00000000000000000101001001110000 0
01
b00000000000000000101001001110000 8
b00000000000000001000100001000000 2
b00000000000000001000100001000000 *
b000000000000000000000000000000000101001001110000 $
b00000000000000000011001001101000 +
b00000000000000001000100001000000 :
b00000000000000001000100001000000 A
b00000000000000000011001001101000 ,
b0000000000000000000000000000000001001000100001000001000000000000 ;
#91
b0000001001 4
11
b0000001010 "
b00000000000000000101001001110000 '
b0000001010 =
b00000000000000000101001001110000 /
#96
b0000000000000000000000000000000000000001111101111100101011000100 B
b11111111111111111110100110001110 -
b00000000000000000011100111111101 <
b11111111111111111000100000111110 C
b00000000000000000011100111111101 .
b00000000000000000011100111111101 5
b000000000000000000000000000000000011100111111101 D
b00000000000000000011100111111101 (
b11111111111111111000100000111110 7
b11111111111111111000100000111110 >
b00000000000000000011100111111101 0
01
b00000000000000000011100111111101 8
b11111111111111111110100110001110 2
b11111111111111111110100110001110 *
b000000000000000000000000000000000011100111111101 $
b11111111111111111000100000111110 +
b11111111111111111110100110001110 :
b11111111111111111110100110001110 A
b11111111111111111000100000111110 ,
b0000000000000000000000000000000000000001111101111100101011000100 ;
#101
b0000001010 4
11
b0000001011 "
b00000000000000000011100111111101 '
b0000001011 =
b00000000000000000011100111111101 /
#106
b0000000000000000000000000000000001001111011110100101100100010000 B
b11111111111111110111000101011100 -
b00000000000000000101010101100100 <
b00000000000000000010011011101000 C
b00000000000000000101010101100100 .
b00000000000000000101010101100100 5
b000000000000000000000000000000000101010101100100 D
b00000000000000000101010101100100 (
b00000000000000000010011011101000 7
b00000000000000000010011011101000 >
b00000000000000000101010101100100 0
01
b00000000000000000101010101100100 8
b11111111111111110111000101011100 2
b11111111111111110111000101011100 *
b000000000000000000000000000000000101010101100100 $
b00000000000000000010011011101000 +
b11111111111111110111000101011100 :
b11111111111111110111000101011100 A
b00000000000000000010011011101000 ,
b0000000000000000000000000000000001001111011110100101100100010000 ;
#111
b0000001011 4
11
b0000001100 "
b00000000000000000101010101100100 '
b0000001100 =
b00000000000000000101010101100100 /
#116
b0000000000000000000000000000000000000000000011001011000100000000 B
b11111111111111111111110001110000 -
b00000000000000001011000100011010 <
b11111111111111110010101100011010 C
b00000000000000001011000100011010 .
b00000000000000001011000100011010 5
b000000000000000000000000000000001011000100011010 D
b00000000000000001011000100011010 (
b11111111111111110010101100011010 7
b11111111111111110010101100011010 >
b00000000000000001011000100011010 0
01
b00000000000000001011000100011010 8
b11111111111111111111110001110000 2
b11111111111111111111110001110000 *
b000000000000000000000000000000001011000100011010 $
b11111111111111110010101100011010 +
b11111111111111111111110001110000 :
b11111111111111111111110001110000 A
b11111111111111110010101100011010 ,
b0000000000000000000000000000000000000000000011001011000100000000 ;
#121
b0000001100 4
11
b0000001101 "
b00000000000000001011000100011010 '
b0000001101 =
b00000000000000001011000100011010 /
#126
b0000000000000000000000000000000000000111101110101101110000010000 B
b11111111111111111101001110000100 -
b00000000000000000000101100101011 <
b11111111111111111110001001010100 C
b00000000000000000000101100101011 .
b00000000000000000000101100101011 5
b000000000000000000000000000000000000101100101011 D
b00000000000000000000101100101011 (
b11111111111111111110001001010100 7
b11111111111111111110001001010100 >
b00000000000000000000101100101011 0
01
b00000000000000000000101100101011 8
b11111111111111111101001110000100 2
b11111111111111111101001110000100 *
b000000000000000000000000000000000000101100101011 $
b11111111111111111110001001010100 +
b11111111111111111101001110000100 :
b11111111111111111101001110000100 A
b11111111111111111110001001010100 ,
b0000000000000000000000000000000000000111101110101101110000010000 ;
#131
b0000001101 4
11
b0000001110 "
b00000000000000000000101100101011 '
b0000001110 =
b00000000000000000000101100101011 /
#136
b0000000000000000000000000000000000001101110000101001101110100100 B
b11111111111111111100010010100110 -
b00000000000000000100010111010011 <
b00000000000000000111011111001110 C
b00000000000000000100010111010011 .
b00000000000000000100010111010011 5
b000000000000000000000000000000000100010111010011 D
b00000000000000000100010111010011 (
b00000000000000000111011111001110 7
b00000000000000000111011111001110 >
b00000000000000000100010111010011 0
01
b00000000000000000100010111010011 8
b11111111111111111100010010100110 2
b11111111111111111100010010100110 *
b000000000000000000000000000000000100010111010011 $
b00000000000000000111011111001110 +
b11111111111111111100010010100110 :
b11111111111111111100010010100110 A
b00000000000000000111011111001110 ,
b0000000000000000000000000000000000001101110000101001101110100100 ;
#141
b0000001110 4
11
b0000001111 "
b00000000000000000100010111010011 '
b0000001111 =
b00000000000000000100010111010011 /
#146
b0000000000000000000000000000000010011100101110011111011111000100 B
b11111111111111110011011110110010 -
b00000000000000001111010011111001 <
b00000000000000001001011001001110 C
b00000000000000001111010011111001 .
b00000000000000001111010011111001 5
b000000000000000000000000000000001111010011111001 D
b00000000000000001111010011111001 (
b00000000000000001001011001001110 7
b00000000000000001001011001001110 >
b00000000000000001111010011111001 0
01
b00000000000000001111010011111001 8
b11111111111111110011011110110010 2
b11111111111111110011011110110010 *
b000000000000000000000000000000001111010011111001 $
b00000000000000001001011001001110 +
b11111111111111110011011110110010 :
b11111111111111110011011110110010 A
b00000000000000001001011001001110 ,
b0000000000000000000000000000000010011100101110011111011111000100 ;
#151
b0000001111 4
11
b0000010000 "
b00000000000000001111010011111001 '
b0000010000 =
b00000000000000001111010011111001 /
#156
b0000000000000000000000000000000000000100111011000100000000000000 B
b11111111111111111101110010000000 -
b00000000000000001011000101111111 <
b00000000000000001101001000110000 C
b00000000000000001011000101111111 .
b00000000000000001011000101111111 5
b000000000000000000000000000000001011000101111111 D
b00000000000000001011000101111111 (
b00000000000000001101001000110000 7
b00000000000000001101001000110000 >
b00000000000000001011000101111111 0
01
b00000000000000001011000101111111 8
b11111111111111111101110010000000 2
b11111111111111111101110010000000 *
b000000000000000000000000000000001011000101111111 $
b00000000000000001101001000110000 +
b11111111111111111101110010000000 :
b11111111111111111101110010000000 A
b00000000000000001101001000110000 ,
b0000000000000000000000000000000000000100111011000100000000000000 ;
#161
b0000010000 4
11
b0000010001 "
b00000000000000001011000101111111 '
b0000010001 =
b00000000000000001011000101111111 /
#166
b0000000000000000000000000000000001101110101000010011010101100100 B
b11111111111111110101011110110110 -
b00000000000000001011001001111011 <
b11111111111111110111110000110100 C
b00000000000000001011001001111011 .
b00000000000000001011001001111011 5
b000000000000000000000000000000001011001001111011 D
b00000000000000001011001001111011 (
b11111111111111110111110000110100 7
b11111111111111110111110000110100 >
b00000000000000001011001001111011 0
01
b00000000000000001011001001111011 8
b11111111111111110101011110110110 2
b11111111111111110101011110110110 *
b000000000000000000000000000000001011001001111011 $
b11111111111111110111110000110100 +
b11111111111111110101011110110110 :
b11111111111111110101011110110110 A
b11111111111111110111110000110100 ,
b0000000000000000000000000000000001101110101000010011010101100100 ;
#171
b0000010001 4
11
b0000010010 "
b00000000000000001011001001111011 '
b0000010010 =
b00000000000000001011001001111011 /
#176
b0000000000000000000000000000000000101110000010000001111011000100 B
b00000000000000000110110010001110 -
b00000000000000000011011111110010 <
b11111111111111111100110110011110 C
b00000000000000000011011111110010 .
b00000000000000000011011111110010 5
b000000000000000000000000000000000011011111110010 D
b00000000000000000011011111110010 (
b11111111111111111100110110011110 7
b11111111111111111100110110011110 >
b00000000000000000011011111110010 0
01
b00000000000000000011011111110010 8
b00000000000000000110110010001110 2
b00000000000000000110110010001110 *
b000000000000000000000000000000000011011111110010 $
b11111111111111111100110110011110 +
b00000000000000000110110010001110 :
b00000000000000000110110010001110 A
b11111111111111111100110110011110 ,
b0000000000000000000000000000000000101110000010000001111011000100 ;
#181
b0000010010 4
11
b0000010011 "
b00000000000000000011011111110010 '
b0000010011 =
b00000000000000000011011111110010 /
#186
b0000000000000000000000000000000000000000011000111101100000000100 B
b00000000000000000000100111111110 -
b00000000000000000010000100000001 <
b00000000000000000101101101100000 C
b00000000000000000010000100000001 .
b00000000000000000010000100000001 5
b000000000000000000000000000000000010000100000001 D
b00000000000000000010000100000001 (
b00000000000000000101101101100000 7
b00000000000000000101101101100000 >
b00000000000000000010000100000001 0
01
b00000000000000000010000100000001 8
b00000000000000000000100111111110 2
b00000000000000000000100111111110 *
b000000000000000000000000000000000010000100000001 $
b00000000000000000101101101100000 +
b00000000000000000000100111111110 :
b00000000000000000000100111111110 A
b00000000000000000101101101100000 ,
b0000000000000000000000000000000000000000011000111101100000000100 ;
#191
b0000010011 4
11
b0000010100 "
b00000000000000000010000100000001 '
b0000010100 =
b00000000000000000010000100000001 /
#196
b0000000000000000000000000000000000001101011001001010011011000100 B
b11111111111111111100010101110010 -
b00000000000000000111110111010110 <
b00000000000000001010100110101010 C
b00000000000000000111110111010110 .
b00000000000000000111110111010110 5
b000000000000000000000000000000000111110111010110 D
b00000000000000000111110111010110 (
b00000000000000001010100110101010 7
b00000000000000001010100110101010 >
b00000000000000000111110111010110 0
01
b00000000000000000111110111010110 8
b11111111111111111100010101110010 2
b11111111111111111100010101110010 *
b000000000000000000000000000000000111110111010110 $
b00000000000000001010100110101010 +
b11111111111111111100010101110010 :
b11111111111111111100010101110010 A
b00000000000000001010100110101010 ,
b0000000000000000000000000000000000001101011001001010011011000100 ;
#201
b0000010100 4
11
b0000010101 "
b00000000000000000111110111010110 '
b0000010101 =
b00000000000000000111110111010110 /
#206
b0000000000000000000000000000000011100101000001000100110010000100 B
b00000000000000001111001000100010 -
b00000000000000010001101001001111 <
b11111111111111111000101100110010 C
b00000000000000010001101001001111 .
b00000000000000010001101001001111 5
b000000000000000000000000000000010001101001001111 D
b00000000000000010001101001001111 (
b11111111111111111000101100110010 7
b11111111111111111000101100110010 >
b00000000000000010001101001001111 0
01
b00000000000000010001101001001111 8
b00000000000000001111001000100010 2
b00000000000000001111001000100010 *
b000000000000000000000000000000010001101001001111 $
b11111111111111111000101100110010 +
b00000000000000001111001000100010 :
b00000000000000001111001000100010 A
b11111111111111111000101100110010 ,
b0000000000000000000000000000000011100101000001000100110010000100 ;
#211
b0000010101 4
11
b0000010110 "
b00000000000000010001101001001111 '
b0000010110 =
b00000000000000010001101001001111 /
#216
b0000000000000000000000000000000000101000000000000111110111000100 B
b00000000000000000110010100110010 -
b00000000000000000111100101010011 <
b00000000000000001001000001001010 C
b00000000000000000111100101010011 .
b00000000000000000111100101010011 5
b000000000000000000000000000000000111100101010011 D
b00000000000000000111100101010011 (
b00000000000000001001000001001010 7
b00000000000000001001000001001010 >
b00000000000000000111100101010011 0
01
b00000000000000000111100101010011 8
b00000000000000000110010100110010 2
b00000000000000000110010100110010 *
b000000000000000000000000000000000111100101010011 $
b00000000000000001001000001001010 +
b00000000000000000110010100110010 :
b00000000000000000110010100110010 A
b00000000000000001001000001001010 ,
b0000000000000000000000000000000000101000000000000111110111000100 ;
#221
b0000010110 4
11
b0000010111 "
b00000000000000000111100101010011 '
b0000010111 =
b00000000000000000111100101010011 /
#226
b0000000000000000000000000000000000011110011101000101011010010000 B
b11111111111111111010011110110100 -
b00000000000000001010011011101101 <
b00000000000000001011101011101010 C
b00000000000000001010011011101101 .
b00000000000000001010011011101101 5
b000000000000000000000000000000001010011011101101 D
b00000000000000001010011011101101 (
b00000000000000001011101011101010 7
b00000000000000001011101011101010 >
b00000000000000001010011011101101 0
01
b00000000000000001010011011101101 8
b11111111111111111010011110110100 2
b11111111111111111010011110110100 *
b000000000000000000000000000000001010011011101101 $
b00000000000000001011101011101010 +
b11111111111111111010011110110100 :
b11111111111111111010011110110100 A
b00000000000000001011101011101010 ,
b0000000000000000000000000000000000011110011101000101011010010000 ;
#231
b0000010111 4
11
b0000011000 "
b00000000000000001010011011101101 '
b0000011000 =
b00000000000000001010011011101101 /
#236
b0000000000000000000000000000000000000011011110100010111011100100 B
b00000000000000000001110111010110 -
b00000000000000000000001110001111 <
b00000000000000000000010010010100 C
b00000000000000000000001110001111 .
b00000000000000000000001110001111 5
b000000000000000000000000000000000000001110001111 D
b00000000000000000000001110001111 (
b00000000000000000000010010010100 7
b00000000000000000000010010010100 >
b00000000000000000000001110001111 0
01
b00000000000000000000001110001111 8
b00000000000000000001110111010110 2
b00000000000000000001110111010110 *
b000000000000000000000000000000000000001110001111 $
b00000000000000000000010010010100 +
b00000000000000000001110111010110 :
b00000000000000000001110111010110 A
b00000000000000000000010010010100 ,
b0000000000000000000000000000000000000011011110100010111011100100 ;
#241
b0000011000 4
11
b0000011001 "
b00000000000000000000001110001111 '
b0000011001 =
b00000000000000000000001110001111 /
#246
b0000000000000000000000000000000000111011011010111100000011100100 B
b11111111111111111000010010101010 -
b00000000000000001000011000110101 <
b00000000000000001000101001011110 C
b00000000000000001000011000110101 .
b00000000000000001000011000110101 5
b000000000000000000000000000000001000011000110101 D
b00000000000000001000011000110101 (
b00000000000000001000101001011110 7
b00000000000000001000101001011110 >
b00000000000000001000011000110101 0
01
b00000000000000001000011000110101 8
b11111111111111111000010010101010 2
b11111111111111111000010010101010 *
b000000000000000000000000000000001000011000110101 $
b00000000000000001000101001011110 +
b11111111111111111000010010101010 :
b11111111111111111000010010101010 A
b00000000000000001000101001011110 ,
b0000000000000000000000000000000000111011011010111100000011100100 ;
#251
b0000011001 4
11
b0000011010 "
b00000000000000001000011000110101 '
b0000011010 =
b00000000000000001000011000110101 /
#256
b0000000000000000000000000000000000010111110110001011110010000100 B
b00000000000000000100111000100010 -
b00000000000000000001101001011101 <
b00000000000000000001100101100010 C
b00000000000000000001101001011101 .
b00000000000000000001101001011101 5
b000000000000000000000000000000000001101001011101 D
b00000000000000000001101001011101 (
b00000000000000000001100101100010 7
b00000000000000000001100101100010 >
b00000000000000000001101001011101 0
01
b00000000000000000001101001011101 8
b00000000000000000100111000100010 2
b00000000000000000100111000100010 *
b000000000000000000000000000000000001101001011101 $
b00000000000000000001100101100010 +
b00000000000000000100111000100010 :
b00000000000000000100111000100010 A
b00000000000000000001100101100010 ,
b0000000000000000000000000000000000010111110110001011110010000100 ;
#261
b0000011010 4
11
b0000011011 "
b00000000000000000001101001011101 '
b0000011011 =
b00000000000000000001101001011101 /
#266
b0000000000000000000000000000000001010111010001110011111000100100 B
b00000000000000001001010101111010 -
b00000000000000000101100101100000 <
b11111111111111111110100011010010 C
b00000000000000000101100101100000 .
b00000000000000000101100101100000 5
b000000000000000000000000000000000101100101100000 D
b00000000000000000101100101100000 (
b11111111111111111110100011010010 7
b11111111111111111110100011010010 >
b00000000000000000101100101100000 0
01
b00000000000000000101100101100000 8
b00000000000000001001010101111010 2
b00000000000000001001010101111010 *
b000000000000000000000000000000000101100101100000 $
b11111111111111111110100011010010 +
b00000000000000001001010101111010 :
b00000000000000001001010101111010 A
b11111111111111111110100011010010 ,
b0000000000000000000000000000000001010111010001110011111000100100 ;
#271
b0000011011 4
11
b0000011100 "
b00000000000000000101100101100000 '
b0000011100 =
b00000000000000000101100101100000 /
#276
b0000000000000000000000000000000000000000000000000101011111100100 B
b11111111111111111111111101101010 -
b00000000000000000111010010011101 <
b11111111111111110101001100111000 C
b00000000000000000111010010011101 .
b00000000000000000111010010011101 5
b000000000000000000000000000000000111010010011101 D
b00000000000000000111010010011101 (
b11111111111111110101001100111000 7
b11111111111111110101001100111000 >
b00000000000000000111010010011101 0
01
b00000000000000000111010010011101 8
b11111111111111111111111101101010 2
b11111111111111111111111101101010 *
b000000000000000000000000000000000111010010011101 $
b11111111111111110101001100111000 +
b11111111111111111111111101101010 :
b11111111111111111111111101101010 A
b11111111111111110101001100111000 ,
b0000000000000000000000000000000000000000000000000101011111100100 ;
#281
b0000011100 4
11
b0000011101 "
b00000000000000000111010010011101 '
b0000011101 =
b00000000000000000111010010011101 /
#286
b0000000000000000000000000000000001010000101011001101010101100100 B
b00000000000000001000111110110110 -
b00000000000000000101101110110100 <
b11111111111111111100101011011100 C
b00000000000000000101101110110100 .
b00000000000000000101101110110100 5
b000000000000000000000000000000000101101110110100 D
b00000000000000000101101110110100 (
b11111111111111111100101011011100 7
b11111111111111111100101011011100 >
b00000000000000000101101110110100 0
01
b00000000000000000101101110110100 8
b00000000000000001000111110110110 2
b00000000000000001000111110110110 *
b000000000000000000000000000000000101101110110100 $
b11111111111111111100101011011100 +
b00000000000000001000111110110110 :
b00000000000000001000111110110110 A
b11111111111111111100101011011100 ,
b0000000000000000000000000000000001010000101011001101010101100100 ;
#291
b0000011101 4
11
b0000011110 "
b00000000000000000101101110110100 '
b0000011110 =
b00000000000000000101101110110100 /
#296
b0000000000000000000000000000000001011100110111011100100100000000 B
b11111111111111110110010111010000 -
b00000000000000001001011011010100 <
b11111111111111111000011000110000 C
b00000000000000001001011011010100 .
b00000000000000001001011011010100 5
b000000000000000000000000000000001001011011010100 D
b00000000000000001001011011010100 (
b11111111111111111000011000110000 7
b11111111111111111000011000110000 >
b00000000000000001001011011010100 0
01
b00000000000000001001011011010100 8
b11111111111111110110010111010000 2
b11111111111111110110010111010000 *
b000000000000000000000000000000001001011011010100 $
b11111111111111111000011000110000 +
b11111111111111110110010111010000 :
b11111111111111110110010111010000 A
b11111111111111111000011000110000 ,
b0000000000000000000000000000000001011100110111011100100100000000 ;
#301
b0000011110 4
11
b0000011111 "
b00000000000000001001011011010100 '
b0000011111 =
b00000000000000001001011011010100 /
#306
b0000000000000000000000000000000000001110000010001000000100000000 B
b11111111111111111100010000010000 -
b00000000000000000111100101100001 <
b00000000000000001010010111000110 C
b00000000000000000111100101100001 .
b00000000000000000111100101100001 5
b000000000000000000000000000000000111100101100001 D
b00000000000000000111100101100001 (
b00000000000000001010010111000110 7
b00000000000000001010010111000110 >
b00000000000000000111100101100001 0
01
b00000000000000000111100101100001 8
b11111111111111111100010000010000 2
b11111111111111111100010000010000 *
b000000000000000000000000000000000111100101100001 $
b00000000000000001010010111000110 +
b11111111111111111100010000010000 :
b11111111111111111100010000010000 A
b00000000000000001010010111000110 ,
b0000000000000000000000000000000000001110000010001000000100000000 ;
#311
b0000011111 4
11
b0000100000 "
b00000000000000000111100101100001 '
b0000100000 =
b00000000000000000111100101100001 /
#316
b0000000000000000000000000000000010011101110100010000000000000000 B
b11111111111111110011011100000000 -
b00000000000000001010010111000100 <
b11111111111111111101001011100010 C
b00000000000000001010010111000100 .
b00000000000000001010010111000100 5
b000000000000000000000000000000001010010111000100 D
b00000000000000001010010111000100 (
b11111111111111111101001011100010 7
b11111111111111111101001011100010 >
b00000000000000001010010111000100 0
01
b00000000000000001010010111000100 8
b11111111111111110011011100000000 2
b11111111111111110011011100000000 *
b000000000000000000000000000000001010010111000100 $
b11111111111111111101001011100010 +
b11111111111111110011011100000000 :
b11111111111111110011011100000000 A
b11111111111111111101001011100010 ,
b0000000000000000000000000000000010011101110100010000000000000000 ;
#321
b0000100000 4
11
b0000100001 "
b00000000000000001010010111000100 '
b0000100001 =
b00000000000000001010010111000100 /
#326
b0000000000000000000000000000000011000101001011010111001110010000 B
b00000000000000001110000010101100 -
b00000000000000001110001100010000 <
b00000000000000000101011101111000 C
b00000000000000001110001100010000 .
b00000000000000001110001100010000 5
b000000000000000000000000000000001110001100010000 D
b00000000000000001110001100010000 (
b00000000000000000101011101111000 7
b00000000000000000101011101111000 >
b00000000000000001110001100010000 0
01
b00000000000000001110001100010000 8
b00000000000000001110000010101100 2
b00000000000000001110000010101100 *
b000000000000000000000000000000001110001100010000 $
b00000000000000000101011101111000 +
b00000000000000001110000010101100 :
b00000000000000001110000010101100 A
b00000000000000000101011101111000 ,
b0000000000000000000000000000000011000101001011010111001110010000 ;
#331
b0000100001 4
11
b0000100010 "
b00000000000000001110001100010000 '
b0000100010 =
b00000000000000001110001100010000 /
#336
b0000000000000000000000000000000000000000000000010111110001000000 B
b11111111111111111111111011001000 -
b00000000000000000000011010111010 <
b00000000000000000010100101111100 C
b00000000000000000000011010111010 .
b00000000000000000000011010111010 5
b000000000000000000000000000000000000011010111010 D
b00000000000000000000011010111010 (
b00000000000000000010100101111100 7
b00000000000000000010100101111100 >
b00000000000000000000011010111010 0
01
b00000000000000000000011010111010 8
b11111111111111111111111011001000 2
b11111111111111111111111011001000 *
b000000000000000000000000000000000000011010111010 $
b00000000000000000010100101111100 +
b11111111111111111111111011001000 :
b11111111111111111111111011001000 A
b00000000000000000010100101111100 ,
b0000000000000000000000000000000000000000000000010111110001000000 ;
#341
b0000100010 4
11
b0000100011 "
b00000000000000000000011010111010 '
b0000100011 =
b00000000000000000000011010111010 /
